<?xml version="1.0" standalone="no"?>
<!DOCTYPE svg PUBLIC "-//W3C//DTD SVG 20010904//EN"
 "http://www.w3.org/TR/2001/REC-SVG-20010904/DTD/svg10.dtd">
<svg version="1.0" xmlns="http://www.w3.org/2000/svg"
 width="400.000000pt" height="241.666667pt" viewBox="0 0 400.000000 241.666667"
 preserveAspectRatio="xMidYMid meet">
<metadata>
Created by potrace 1.13, written by Peter Selinger 2001-2015
</metadata>
<g transform="translate(0.000000,241.666667) scale(0.041667,-0.041667)"
fill="#000000" stroke="none">
<path d="M1030 5525 c0 -21 5 -25 30 -25 25 0 30 4 30 25 0 21 -5 25 -30 25
-25 0 -30 -4 -30 -25z M5395 5538 c-3 -8 -4 -81 -3 -163 3 -150 3 -150 31
-153 27 -3 27 -3 27 67 0 71 0 71 49 71 55 0 81 -22 81 -70 0 -53 11 -70 42
-70 29 0 29 0 23 48 -8 62 -23 99 -42 106 -13 5 -10 11 11 31 37 34 33 89 -6
118 -36 27 -204 39 -213 15z m173 -51 c20 -16 14 -55 -10 -71 -13 -8 -42 -14
-65 -14 -43 -1 -43 -1 -43 47 0 26 3 51 6 54 9 9 96 -4 112 -16z M5966 5534
c-9 -8 -16 -31 -16 -51 0 -26 -5 -36 -20 -40 -26 -7 -26 -29 0 -36 17 -4 20
-15 22 -93 3 -81 5 -89 23 -89 18 0 20 8 23 89 2 78 5 89 23 93 23 6 22 38 -1
38 -9 0 -16 11 -18 27 -3 22 2 30 22 38 14 5 26 16 26 25 0 21 -63 20 -84 -1z
M6100 5386 c0 -166 0 -166 25 -166 25 0 25 0 23 163 -3 159 -3 162 -25 165
-23 3 -23 3 -23 -162z M6700 5519 c0 -24 3 -30 16 -25 9 3 20 6 25 6 5 0 9 11
9 25 0 20 -5 25 -25 25 -21 0 -25 -5 -25 -31z M312 5383 c3 -158 3 -158 28
-158 24 0 25 3 28 63 3 62 3 62 36 62 109 0 165 93 97 161 -28 27 -34 29 -110
29 -82 0 -82 0 -79 -157z m143 97 c35 -38 -3 -90 -66 -90 -16 0 -19 7 -19 55
0 55 0 55 33 55 21 0 41 -8 52 -20z M5792 5509 c-7 -12 -11 -23 -9 -25 8 -8
32 6 45 26 10 17 10 20 -6 20 -9 0 -23 -9 -30 -21z M1448 5499 c-10 -5 -18
-18 -18 -29 0 -12 -8 -20 -22 -22 -13 -2 -23 -10 -23 -18 0 -8 10 -16 23 -18
21 -3 22 -8 22 -87 0 -75 2 -86 20 -95 30 -16 74 -9 78 13 2 11 -3 17 -16 17
-26 0 -32 18 -32 91 0 56 1 59 25 59 18 0 25 5 25 20 0 15 -7 20 -25 20 -21 0
-25 5 -25 30 0 32 -5 35 -32 19z M1212 5444 c-74 -31 -82 -176 -13 -214 33
-17 95 -12 119 10 47 44 15 68 -37 29 -23 -17 -33 -19 -49 -10 -22 12 -37 45
-27 61 3 5 38 10 77 10 71 0 71 0 65 37 -12 69 -72 104 -135 77z m65 -36 c6
-7 13 -21 16 -30 5 -15 0 -18 -38 -18 -37 0 -45 3 -45 18 0 36 46 57 67 30z
M6282 5444 c-74 -31 -82 -176 -13 -214 33 -17 95 -12 119 10 47 44 15 68 -37
29 -23 -17 -33 -19 -49 -10 -22 12 -37 45 -27 61 3 5 38 10 77 10 71 0 71 0
65 37 -12 69 -72 104 -135 77z m65 -36 c6 -7 13 -21 16 -30 5 -15 0 -18 -38
-18 -37 0 -45 3 -45 18 0 36 46 57 67 30z M590 5334 c0 -114 0 -115 23 -112
19 3 22 10 25 58 4 85 10 100 42 112 22 7 30 16 30 34 0 29 -10 30 -43 4 -25
-20 -25 -20 -30 0 -3 12 -14 20 -26 20 -20 0 -21 -5 -21 -116z M797 5439 c-43
-25 -61 -114 -32 -168 27 -52 120 -66 166 -25 49 44 48 136 -2 178 -33 28 -97
35 -132 15z m95 -36 c26 -23 25 -106 -1 -132 -20 -20 -52 -19 -70 3 -20 24
-17 108 5 130 20 21 43 20 66 -1z M1030 5316 c0 -110 -3 -135 -15 -140 -28
-10 -17 -36 15 -36 51 0 60 28 59 178 0 132 0 132 -30 132 -29 0 -29 0 -29
-134z M1600 5430 c-40 -40 -19 -92 42 -105 18 -4 39 -12 46 -17 17 -14 15 -45
-4 -52 -25 -9 -32 -7 -52 14 -14 15 -25 18 -41 12 -22 -8 -22 -8 -3 -32 17
-21 29 -25 70 -25 114 0 134 99 27 135 -36 12 -51 22 -53 37 -4 26 29 36 58
16 11 -8 30 -13 43 -11 22 3 22 3 0 26 -31 30 -104 31 -133 2z M6700 5335 c0
-115 0 -115 25 -113 25 2 25 2 25 115 0 113 0 113 -25 113 -25 0 -25 0 -25
-115z M6867 5439 c-43 -25 -61 -114 -32 -168 27 -52 120 -66 166 -25 49 44 48
136 -2 178 -33 28 -97 35 -132 15z m95 -36 c26 -23 25 -106 -1 -132 -20 -20
-52 -19 -70 3 -20 24 -17 108 5 130 20 21 43 20 66 -1z M7100 5335 c0 -115 0
-115 25 -115 27 0 26 -4 29 103 1 69 11 87 47 87 29 0 38 -24 41 -105 3 -78 4
-80 28 -80 24 0 25 2 28 75 3 85 -1 112 -24 134 -20 20 -78 21 -94 1 -7 -8
-16 -15 -21 -15 -5 0 -9 7 -9 15 0 9 -9 15 -25 15 -25 0 -25 0 -25 -115z
M7380 5430 c-40 -40 -19 -92 42 -105 18 -4 39 -12 46 -17 17 -14 15 -45 -4
-52 -25 -9 -32 -7 -52 14 -14 15 -25 18 -41 12 -22 -8 -22 -8 -3 -32 17 -21
29 -25 70 -25 114 0 134 99 27 135 -36 12 -51 22 -53 37 -4 26 29 36 58 16 11
-8 30 -13 43 -11 22 3 22 3 0 26 -31 30 -104 31 -133 2z M5753 5430 c-51 -21
-70 -125 -33 -173 22 -28 74 -43 109 -32 24 7 51 32 51 46 0 15 -42 10 -62 -8
-26 -23 -68 -4 -68 32 0 24 2 25 71 25 72 0 72 0 66 38 -11 65 -71 97 -134 72z
m69 -37 c31 -28 22 -43 -27 -43 -49 0 -59 15 -29 44 20 20 33 20 56 -1z M6450
5434 c0 -3 14 -25 31 -49 31 -44 31 -44 0 -95 -37 -60 -38 -70 -8 -70 18 0 28
10 42 40 10 22 22 40 26 40 5 0 18 -18 29 -40 17 -33 26 -40 50 -40 17 0 30 2
30 5 0 3 -14 28 -31 56 -34 55 -34 58 11 127 22 32 22 32 -7 32 -24 0 -33 -7
-46 -35 -9 -19 -20 -35 -25 -35 -5 0 -16 16 -25 35 -14 29 -22 35 -47 35 -16
0 -30 -3 -30 -6z M1922 5348 c2 -15 10 -23 23 -23 30 0 27 39 -3 43 -20 3 -23
0 -20 -20z M7702 5348 c2 -15 10 -23 23 -23 30 0 27 39 -3 43 -20 3 -23 0 -20
-20z M1030 5075 c0 -21 5 -25 30 -25 25 0 30 4 30 25 0 21 -5 25 -30 25 -25 0
-30 -4 -30 -25z M5370 5075 c0 -23 3 -25 50 -25 50 0 50 0 51 -117 1 -65 2
-127 3 -138 1 -28 52 -34 60 -7 3 10 4 73 2 139 -5 135 -6 133 72 133 25 0 32
4 32 20 0 19 -7 20 -135 20 -135 0 -135 0 -135 -25z M5712 5092 c-22 -3 -22
-4 -20 -160 3 -157 3 -157 31 -160 27 -3 27 -3 27 80 0 90 8 108 47 108 31 0
43 -33 43 -121 0 -67 1 -69 25 -69 25 0 25 1 25 90 0 77 -3 93 -20 110 -21 21
-84 28 -95 10 -15 -25 -25 -5 -25 49 0 64 -3 69 -38 63z M6792 5092 c-22 -3
-22 -4 -20 -160 3 -157 3 -157 31 -160 27 -3 27 -3 27 80 0 90 8 108 47 108
31 0 43 -33 43 -121 0 -67 1 -69 25 -69 25 0 25 1 25 90 0 77 -3 93 -20 110
-21 21 -84 28 -95 10 -15 -25 -25 -5 -25 49 0 64 -3 69 -38 63z M312 4933 c3
-158 3 -158 28 -158 24 0 25 3 28 63 3 62 3 62 36 62 109 0 165 93 97 161 -28
27 -34 29 -110 29 -82 0 -82 0 -79 -157z m143 97 c35 -38 -3 -90 -66 -90 -16
0 -19 7 -19 55 0 55 0 55 33 55 21 0 41 -8 52 -20z M1668 5049 c-10 -5 -18
-18 -18 -29 0 -12 -8 -20 -22 -22 -13 -2 -23 -10 -23 -18 0 -8 10 -16 23 -18
21 -3 22 -8 22 -87 0 -75 2 -86 20 -95 30 -16 74 -9 78 13 2 11 -3 17 -16 17
-26 0 -32 18 -32 91 0 56 1 59 25 59 18 0 25 5 25 20 0 15 -7 20 -25 20 -21 0
-25 5 -25 30 0 32 -5 35 -32 19z M7078 5049 c-10 -5 -18 -18 -18 -29 0 -12 -8
-20 -22 -22 -13 -2 -23 -10 -23 -18 0 -8 10 -16 23 -18 21 -3 22 -8 22 -87 0
-75 2 -86 20 -95 30 -16 74 -9 78 13 2 11 -3 17 -16 17 -26 0 -32 18 -32 91 0
56 1 59 25 59 18 0 25 5 25 20 0 15 -7 20 -25 20 -21 0 -25 5 -25 30 0 32 -5
35 -32 19z M1212 4994 c-74 -31 -82 -176 -13 -214 33 -17 95 -12 119 10 47 44
15 68 -37 29 -23 -17 -33 -19 -49 -10 -22 12 -37 45 -27 61 3 5 38 10 77 10
71 0 71 0 65 37 -12 69 -72 104 -135 77z m65 -36 c6 -7 13 -21 16 -30 5 -15 0
-18 -38 -18 -37 0 -45 3 -45 18 0 36 46 57 67 30z M590 4884 c0 -114 0 -115
23 -112 19 3 22 10 25 58 4 85 10 100 42 112 22 7 30 16 30 34 0 29 -10 30
-43 4 -25 -20 -25 -20 -30 0 -3 12 -14 20 -26 20 -20 0 -21 -5 -21 -116z M797
4989 c-43 -25 -61 -114 -32 -168 27 -52 120 -66 166 -25 49 44 48 136 -2 178
-33 28 -97 35 -132 15z m95 -36 c26 -23 25 -106 -1 -132 -20 -20 -52 -19 -70
3 -20 24 -17 108 5 130 20 21 43 20 66 -1z M1030 4866 c0 -110 -3 -135 -15
-140 -28 -10 -17 -36 15 -36 51 0 60 28 59 178 0 132 0 132 -30 132 -29 0 -29
0 -29 -134z M1431 4974 c-29 -24 -31 -31 -31 -88 0 -81 27 -116 90 -116 64 0
120 68 65 78 -10 3 -27 -8 -41 -25 -21 -26 -24 -27 -40 -11 -26 26 -31 108 -7
137 19 24 19 24 48 -3 42 -39 73 -34 53 9 -22 49 -91 58 -137 19z M1820 4980
c-40 -40 -19 -92 42 -105 18 -4 39 -12 46 -17 17 -14 15 -45 -4 -52 -25 -9
-32 -7 -52 14 -14 15 -25 18 -41 12 -22 -8 -22 -8 -3 -32 17 -21 29 -25 70
-25 114 0 134 99 27 135 -36 12 -51 22 -53 37 -4 26 29 36 58 16 11 -8 30 -13
43 -11 22 3 22 3 0 26 -31 30 -104 31 -133 2z M5997 4989 c-43 -25 -61 -114
-32 -168 27 -52 120 -66 166 -25 49 44 48 136 -2 178 -33 28 -97 35 -132 15z
m95 -36 c26 -23 25 -106 -1 -132 -20 -20 -52 -19 -70 3 -20 24 -17 108 5 130
20 21 43 20 66 -1z M6230 4910 c0 -83 2 -93 25 -115 28 -29 61 -32 93 -9 22
15 24 15 36 -2 8 -10 20 -15 30 -11 14 6 16 21 14 114 -3 108 -3 108 -28 108
-24 0 -25 -2 -28 -80 -3 -86 -12 -105 -48 -105 -33 0 -39 16 -39 105 0 80 0
80 -27 83 -28 3 -28 3 -28 -88z M7230 4980 c-40 -40 -19 -92 42 -105 18 -4 39
-12 46 -17 17 -14 15 -45 -4 -52 -25 -9 -32 -7 -52 14 -14 15 -25 18 -41 12
-22 -8 -22 -8 -3 -32 17 -21 29 -25 70 -25 114 0 134 99 27 135 -36 12 -51 22
-53 37 -4 26 29 36 58 16 11 -8 30 -13 43 -11 22 3 22 3 0 26 -31 30 -104 31
-133 2z M6537 4979 c-24 -14 -47 -62 -47 -99 0 -75 63 -125 121 -96 29 14 29
14 29 -18 0 -17 -5 -37 -12 -44 -17 -17 -53 -15 -68 3 -14 17 -60 21 -60 5 0
-27 41 -50 91 -50 95 0 109 26 109 196 0 114 0 114 -24 114 -13 0 -26 -6 -29
-12 -3 -10 -9 -10 -26 0 -25 14 -60 15 -84 1z m85 -36 c23 -21 25 -95 2 -117
-34 -35 -70 -14 -79 47 -5 30 -2 41 19 62 30 30 34 30 58 8z M3885 4148 c-66
-17 -109 -84 -109 -171 -1 -50 3 -62 23 -78 34 -28 96 -25 138 7 32 24 44 54
23 54 -6 0 -21 -12 -34 -27 -25 -28 -75 -35 -102 -12 -21 17 -18 107 5 149 32
62 111 82 133 35 13 -29 38 -33 38 -7 0 40 -58 65 -115 50z M814 4126 c-16
-14 -24 -26 -18 -26 6 0 17 7 24 15 12 14 15 14 31 -1 26 -23 32 -14 10 15
-18 23 -18 23 -47 -3z M2004 4137 c-2 -7 -3 -67 -2 -132 2 -84 7 -120 16 -123
9 -3 12 28 12 132 0 87 -4 136 -10 136 -6 0 -13 -6 -16 -13z M2126 4142 c-2
-4 -7 -25 -11 -47 -9 -48 6 -39 30 18 13 32 13 37 1 37 -8 0 -17 -3 -20 -8z
M4071 4113 c-5 -21 -17 -80 -26 -131 -16 -84 -16 -116 1 -99 7 7 54 222 54
250 0 31 -19 18 -29 -20z M4186 4137 c-14 -10 -16 -16 -7 -22 15 -9 35 8 30
24 -3 8 -10 7 -23 -2z M5428 4078 c-1 -40 -2 -96 -3 -125 -2 -58 8 -84 25 -67
16 16 9 256 -7 262 -10 3 -13 -16 -15 -70z M7080 4140 c-12 -7 -12 -12 -2 -22
9 -9 15 -9 24 0 16 16 -2 34 -22 22z M317 4123 c-4 -16 -3 -116 1 -210 1 -18
7 -33 12 -33 6 0 10 46 10 118 1 136 8 133 56 -26 20 -66 32 -92 43 -90 8 2
29 46 50 110 20 59 39 110 44 114 4 4 7 -46 7 -110 0 -90 3 -117 13 -114 8 3
13 41 15 131 3 127 3 127 -27 127 -29 0 -30 -3 -62 -105 -18 -58 -35 -105 -38
-105 -3 0 -20 46 -37 103 -27 93 -32 102 -56 105 -19 2 -28 -2 -31 -15z M1610
4090 c0 -27 -2 -50 -5 -50 -3 0 -16 7 -29 15 -18 12 -29 13 -55 4 -36 -13 -51
-41 -51 -98 0 -64 64 -101 121 -71 13 7 19 7 19 0 0 -5 7 -10 15 -10 13 0 15
21 15 130 0 109 -2 130 -15 130 -11 0 -15 -12 -15 -50z m-20 -60 c29 -29 28
-103 -2 -124 -30 -21 -44 -20 -68 4 -29 29 -28 103 2 124 30 21 44 20 68 -4z
M6410 4090 c0 -27 -2 -50 -5 -50 -3 0 -16 7 -29 15 -18 12 -29 13 -55 4 -36
-13 -51 -41 -51 -98 0 -64 64 -101 121 -71 13 7 19 7 19 0 0 -5 7 -10 15 -10
13 0 15 21 15 130 0 109 -2 130 -15 130 -11 0 -15 -12 -15 -50z m-20 -60 c29
-29 28 -103 -2 -124 -30 -21 -44 -20 -68 4 -29 29 -28 103 2 124 30 21 44 20
68 -4z M933 4090 c-3 -11 -14 -20 -24 -20 -25 0 -24 -16 1 -23 18 -5 20 -14
20 -76 0 -75 10 -91 60 -91 28 0 21 24 -9 28 -20 3 -22 8 -19 70 3 61 5 67 26
70 26 4 20 22 -9 22 -12 0 -19 7 -19 20 0 11 -5 20 -11 20 -6 0 -13 -9 -16
-20z M4707 4090 c-3 -12 -14 -20 -26 -20 -12 0 -21 -4 -21 -10 0 -5 7 -10 15
-10 18 0 19 -18 3 -94 -9 -48 -9 -59 3 -67 23 -14 59 -11 59 6 0 8 -9 15 -20
15 -23 0 -24 11 -7 85 10 40 17 51 35 53 28 4 29 22 1 22 -16 0 -19 4 -14 20
4 14 2 20 -8 20 -8 0 -17 -9 -20 -20z M5793 4090 c-3 -11 -14 -20 -24 -20 -25
0 -24 -16 1 -23 18 -5 20 -14 20 -76 0 -75 10 -91 60 -91 28 0 21 24 -9 28
-20 3 -22 8 -19 70 3 61 5 67 26 70 26 4 20 22 -9 22 -12 0 -19 7 -19 20 0 11
-5 20 -11 20 -6 0 -13 -9 -16 -20z M6943 4090 c-3 -11 -14 -20 -24 -20 -25 0
-24 -16 1 -23 18 -5 20 -14 20 -76 0 -75 10 -91 60 -91 28 0 21 24 -9 28 -20
3 -22 8 -19 70 3 61 5 67 26 70 26 4 20 22 -9 22 -12 0 -19 7 -19 20 0 11 -5
20 -11 20 -6 0 -13 -9 -16 -20z M671 4054 c-17 -7 -31 -18 -31 -24 0 -15 16
-12 30 5 19 22 57 19 65 -6 9 -26 3 -32 -48 -44 -32 -8 -44 -16 -51 -37 -17
-48 39 -86 84 -58 9 6 17 5 21 -2 16 -25 26 7 22 74 -1 40 -5 78 -7 84 -7 18
-52 22 -85 8z m66 -90 c3 -8 0 -27 -6 -40 -9 -20 -17 -25 -39 -22 -37 4 -38
47 -2 65 33 17 39 16 47 -3z M1062 3978 c2 -62 7 -93 16 -96 9 -3 12 14 12 60
0 67 12 94 44 100 26 4 33 28 9 28 -11 0 -25 -6 -32 -12 -11 -10 -14 -10 -18
0 -3 6 -11 12 -19 12 -12 0 -14 -17 -12 -92z M2258 4063 c-37 -6 -58 -38 -58
-91 0 -56 33 -92 85 -92 52 0 85 36 85 93 0 71 -39 102 -112 90z m64 -30 c23
-21 24 -89 1 -115 -20 -22 -56 -23 -77 -2 -21 21 -21 92 1 116 20 22 51 23 75
1z M2438 4063 c-3 -5 -2 -42 1 -83 6 -68 8 -76 33 -90 22 -12 33 -12 57 -4 19
8 33 8 39 2 23 -23 32 5 29 90 -2 73 -5 87 -20 90 -15 3 -17 -6 -17 -66 0 -78
-11 -95 -57 -90 -28 3 -28 4 -31 81 -2 58 -6 77 -17 77 -8 0 -15 -3 -17 -7z
M2832 3978 c2 -62 7 -93 16 -96 9 -3 12 14 12 60 0 67 12 94 44 100 26 4 33
28 9 28 -11 0 -25 -6 -32 -12 -11 -10 -14 -10 -18 0 -3 6 -11 12 -19 12 -12 0
-14 -17 -12 -92z M3001 4054 c-17 -7 -31 -18 -31 -24 0 -15 16 -12 30 5 19 22
57 19 65 -6 9 -26 3 -32 -48 -44 -32 -8 -44 -16 -51 -37 -17 -48 39 -86 84
-58 9 6 17 5 21 -2 16 -25 26 7 22 74 -1 40 -5 78 -7 84 -7 18 -52 22 -85 8z
m66 -90 c3 -8 0 -27 -6 -40 -9 -20 -17 -25 -39 -22 -37 4 -38 47 -2 65 33 17
39 16 47 -3z M4518 4056 c-19 -10 -29 -11 -37 -3 -9 9 -14 8 -20 -2 -12 -19
-35 -160 -27 -168 11 -11 17 3 33 71 12 54 20 69 41 79 15 8 35 12 46 9 16 -3
18 -10 13 -50 -3 -26 -9 -62 -13 -81 -11 -55 18 -33 33 25 19 72 17 111 -6
124 -25 13 -31 13 -63 -4z M5608 4054 c-16 -8 -28 -10 -28 -4 0 5 -7 10 -15
10 -12 0 -15 -17 -15 -90 0 -73 3 -90 15 -90 12 0 15 14 15 68 0 75 10 92 52
92 36 0 48 -24 48 -99 0 -78 15 -79 23 -1 7 67 -3 104 -32 119 -25 14 -30 13
-63 -5z M5912 3978 c2 -62 7 -93 16 -96 9 -3 12 14 12 60 0 67 12 94 44 100
26 4 33 28 9 28 -11 0 -25 -6 -32 -12 -11 -10 -14 -10 -18 0 -3 6 -11 12 -19
12 -12 0 -14 -17 -12 -92z M6098 4063 c-37 -6 -58 -38 -58 -91 0 -56 33 -92
85 -92 52 0 85 36 85 93 0 71 -39 102 -112 90z m64 -30 c23 -21 24 -89 1 -115
-20 -22 -56 -23 -77 -2 -21 21 -21 92 1 116 20 22 51 23 75 1z M6508 4063 c-3
-5 -2 -42 1 -83 6 -68 8 -76 33 -90 22 -12 33 -12 57 -4 19 8 33 8 39 2 23
-23 32 5 29 90 -2 73 -5 87 -20 90 -15 3 -17 -6 -17 -66 0 -78 -11 -95 -57
-90 -28 3 -28 4 -31 81 -2 58 -6 77 -17 77 -8 0 -15 -3 -17 -7z M6773 4055
c-35 -15 -43 -31 -43 -91 0 -60 26 -86 82 -82 25 2 45 10 52 20 15 24 0 34
-22 15 -25 -23 -59 -21 -72 3 -18 33 -8 101 16 117 18 12 24 11 48 -8 29 -23
47 -18 30 8 -15 24 -56 32 -91 18z M7228 4063 c-37 -6 -58 -38 -58 -91 0 -56
33 -92 85 -92 52 0 85 36 85 93 0 71 -39 102 -112 90z m64 -30 c23 -21 24 -89
1 -115 -20 -22 -56 -23 -77 -2 -21 21 -21 92 1 116 20 22 51 23 75 1z M7458
4054 c-16 -8 -28 -10 -28 -4 0 5 -7 10 -15 10 -12 0 -15 -17 -15 -90 0 -73 3
-90 15 -90 12 0 15 14 15 68 0 75 10 92 52 92 36 0 48 -24 48 -99 0 -78 15
-79 23 -1 7 67 -3 104 -32 119 -25 14 -30 13 -63 -5z M7636 4054 c-27 -27 -19
-58 21 -85 21 -13 39 -32 41 -42 5 -25 -25 -32 -48 -12 -23 21 -39 12 -24 -13
15 -24 62 -27 85 -6 32 29 24 61 -21 84 -27 14 -40 27 -40 41 0 25 25 35 45
19 20 -17 32 -5 15 15 -16 20 -54 19 -74 -1z M820 3975 c0 -69 3 -85 15 -85
12 0 15 16 15 85 0 69 -3 85 -15 85 -12 0 -15 -16 -15 -85z M1210 4038 c-25
-27 -27 -103 -4 -136 17 -24 61 -30 95 -12 20 11 27 40 9 40 -5 0 -10 -4 -10
-10 0 -5 -9 -14 -20 -20 -30 -16 -60 4 -60 40 0 30 1 30 55 30 51 0 55 2 55
23 0 62 -76 91 -120 45z m80 -7 c17 -33 11 -41 -30 -41 -32 0 -40 4 -40 18 0
41 51 57 70 23z M1720 4038 c-25 -27 -27 -103 -4 -136 17 -24 61 -30 95 -12
20 11 27 40 9 40 -5 0 -10 -4 -10 -10 0 -5 -9 -14 -20 -20 -30 -16 -60 4 -60
40 0 30 1 30 55 30 51 0 55 2 55 23 0 62 -76 91 -120 45z m80 -7 c17 -33 11
-41 -30 -41 -32 0 -40 4 -40 18 0 41 51 57 70 23z M2640 4048 c0 -7 10 -47 23
-88 20 -66 26 -75 46 -75 21 0 27 9 47 80 28 95 28 95 10 95 -9 0 -20 -25 -31
-71 -10 -39 -21 -67 -26 -62 -5 5 -16 35 -26 67 -17 54 -43 87 -43 54z M3190
4052 c-28 -8 -40 -35 -40 -87 0 -73 37 -103 91 -75 17 9 19 7 19 -18 0 -15 -5
-33 -12 -40 -15 -15 -58 -16 -58 -2 0 6 -10 10 -22 10 -20 0 -21 -1 -3 -20 21
-24 72 -27 101 -6 16 12 20 29 22 116 4 113 -1 139 -22 121 -9 -7 -22 -8 -37
-3 -13 5 -31 7 -39 4z m58 -34 c15 -15 16 -72 2 -99 -27 -49 -88 2 -75 63 4
18 9 36 12 41 7 11 48 8 61 -5z M3370 4038 c-25 -27 -27 -103 -4 -136 17 -24
61 -30 95 -12 20 11 27 40 9 40 -5 0 -10 -4 -10 -10 0 -5 -9 -14 -20 -20 -30
-16 -60 4 -60 40 0 30 1 30 55 30 51 0 55 2 55 23 0 62 -76 91 -120 45z m80
-7 c17 -33 11 -41 -30 -41 -32 0 -40 4 -40 18 0 41 51 57 70 23z M4165 4048
c-11 -31 -35 -162 -30 -166 11 -11 23 15 35 78 6 36 14 73 17 83 5 19 -15 24
-22 5z M4272 4038 c-62 -67 -52 -158 18 -158 30 0 80 34 67 46 -4 4 -19 -3
-32 -16 -32 -30 -60 -18 -60 26 0 28 1 29 58 32 57 3 57 3 57 35 0 18 -5 38
-12 45 -20 20 -72 14 -96 -10z m78 -3 c21 -26 4 -45 -40 -45 -45 0 -50 10 -20
40 24 24 43 25 60 5z M7080 3970 c0 -53 4 -90 10 -90 6 0 10 37 10 90 0 53 -4
90 -10 90 -6 0 -10 -37 -10 -90z M3592 3993 c5 -26 38 -29 38 -4 0 15 -6 21
-21 21 -14 0 -19 -5 -17 -17z M5350 3815 c0 -13 140 -15 1200 -15 1060 0 1200
2 1200 15 0 13 -140 15 -1200 15 -1060 0 -1200 -2 -1200 -15z M357 3689 c-41
-24 -63 -128 -39 -190 27 -69 115 -91 171 -43 31 26 41 54 19 54 -7 0 -22 -12
-33 -27 -25 -31 -76 -35 -106 -7 -40 36 -33 171 11 194 35 19 78 12 96 -15 16
-25 44 -34 44 -15 0 6 -11 22 -25 35 -19 20 -34 25 -72 25 -26 0 -56 -5 -66
-11z M1790 3690 c-12 -7 -12 -12 -2 -22 9 -9 15 -9 24 0 8 8 9 15 2 22 -5 5
-15 6 -24 0z M3236 3687 c-14 -10 -16 -16 -7 -22 15 -9 35 8 30 24 -3 8 -10 7
-23 -2z M2597 3663 c-13 -59 -47 -225 -47 -229 0 -10 124 -2 154 10 63 26 107
120 87 186 -14 46 -42 60 -125 60 -61 0 -64 -1 -69 -27z m141 -9 c40 -27 24
-133 -27 -178 -29 -26 -121 -35 -121 -12 0 16 28 170 36 194 5 17 85 15 112
-4z M1653 3640 c-3 -11 -14 -20 -24 -20 -25 0 -24 -16 1 -23 18 -5 20 -14 20
-76 0 -75 10 -91 60 -91 28 0 21 24 -9 28 -20 3 -22 8 -19 70 3 61 5 67 26 70
26 4 20 22 -9 22 -12 0 -19 7 -19 20 0 11 -5 20 -11 20 -6 0 -13 -9 -16 -20z
M628 3613 c-37 -6 -58 -38 -58 -91 0 -56 33 -92 85 -92 52 0 85 36 85 93 0 71
-39 102 -112 90z m64 -30 c23 -21 24 -89 1 -115 -20 -22 -56 -23 -77 -2 -21
21 -21 92 1 116 20 22 51 23 75 1z M858 3604 c-16 -8 -28 -10 -28 -4 0 5 -7
10 -15 10 -12 0 -15 -17 -15 -90 0 -73 3 -90 15 -90 12 0 15 14 15 68 0 75 10
92 52 92 36 0 48 -24 48 -99 0 -78 15 -79 23 -1 7 67 -3 104 -32 119 -25 14
-30 13 -63 -5z M1063 3605 c-35 -15 -43 -31 -43 -91 0 -60 26 -86 82 -82 25 2
45 10 52 20 15 24 0 34 -22 15 -25 -23 -59 -21 -72 3 -18 33 -8 101 16 117 18
12 24 11 48 -8 29 -23 47 -18 30 8 -15 24 -56 32 -91 18z M1938 3613 c-37 -6
-58 -38 -58 -91 0 -56 33 -92 85 -92 52 0 85 36 85 93 0 71 -39 102 -112 90z
m64 -30 c23 -21 24 -89 1 -115 -20 -22 -56 -23 -77 -2 -21 21 -21 92 1 116 20
22 51 23 75 1z M2168 3604 c-16 -8 -28 -10 -28 -4 0 5 -7 10 -15 10 -12 0 -15
-17 -15 -90 0 -73 3 -90 15 -90 12 0 15 14 15 68 0 75 10 92 52 92 36 0 48
-24 48 -99 0 -78 15 -79 23 -1 7 67 -3 104 -32 119 -25 14 -30 13 -63 -5z
M3062 3604 c-33 -23 -29 -65 8 -87 31 -19 34 -25 24 -51 -8 -21 -34 -20 -49 1
-17 23 -38 8 -25 -18 14 -25 64 -25 90 1 29 29 26 62 -10 83 -32 19 -40 54
-15 63 8 4 22 1 30 -6 19 -16 40 -3 24 16 -15 18 -49 18 -77 -2z M3578 3606
c-19 -10 -29 -11 -37 -3 -9 9 -14 8 -20 -2 -12 -19 -35 -160 -27 -168 11 -11
17 3 33 71 12 54 20 69 41 79 15 8 35 12 46 9 16 -3 18 -10 13 -50 -3 -26 -9
-62 -13 -81 -11 -55 18 -33 33 25 19 72 17 111 -6 124 -25 13 -31 13 -63 -4z
M1230 3588 c-25 -27 -27 -103 -4 -136 17 -24 61 -30 95 -12 20 11 27 40 9 40
-5 0 -10 -4 -10 -10 0 -5 -9 -14 -20 -20 -30 -16 -60 4 -60 40 0 30 1 30 55
30 51 0 55 2 55 23 0 62 -76 91 -120 45z m80 -7 c17 -33 11 -41 -30 -41 -32 0
-40 4 -40 18 0 41 51 57 70 23z M1410 3484 c0 -96 3 -125 13 -122 6 3 13 21
15 42 3 36 4 37 37 30 46 -8 73 2 90 36 20 39 19 69 -5 108 -17 27 -26 32 -58
32 -21 0 -43 -5 -49 -11 -8 -8 -13 -8 -17 0 -19 31 -26 1 -26 -115z m120 91
c7 -9 13 -33 13 -55 0 -48 -17 -70 -53 -70 -41 0 -55 27 -51 92 3 41 65 64 91
33z M1790 3520 c0 -53 4 -90 10 -90 6 0 10 37 10 90 0 53 -4 90 -10 90 -6 0
-10 -37 -10 -90z M2872 3588 c-62 -67 -52 -158 18 -158 30 0 80 34 67 46 -4 4
-19 -3 -32 -16 -32 -30 -60 -18 -60 26 0 28 1 29 58 32 57 3 57 3 57 35 0 18
-5 38 -12 45 -20 20 -72 14 -96 -10z m78 -3 c21 -26 4 -45 -40 -45 -45 0 -50
10 -20 40 24 24 43 25 60 5z M3215 3598 c-11 -31 -35 -162 -30 -166 11 -11 23
15 35 78 6 36 14 73 17 83 5 19 -15 24 -22 5z M3349 3597 c-28 -14 -59 -71
-59 -109 0 -47 39 -70 81 -48 15 9 19 7 19 -7 0 -30 -29 -63 -55 -63 -13 0
-25 5 -27 11 -2 6 -12 10 -23 8 -18 -4 -18 -5 -1 -21 24 -25 70 -22 100 5 18
16 30 45 46 110 25 111 26 131 3 118 -9 -5 -26 -5 -38 -1 -13 5 -31 4 -46 -3z
m61 -57 c0 -47 -33 -92 -64 -88 -42 6 -27 111 18 128 33 12 46 1 46 -40z
M2382 3543 c5 -26 38 -29 38 -4 0 15 -6 21 -21 21 -14 0 -19 -5 -17 -17z
M5842 3543 c5 -26 38 -29 38 -4 0 15 -6 21 -21 21 -14 0 -19 -5 -17 -17z M328
3232 c-4 -15 -4 -54 1 -219 1 -33 1 -33 86 -33 69 0 85 3 85 15 0 12 -14 15
-70 15 -70 0 -70 0 -71 53 -1 28 -1 72 -1 97 1 56 -6 90 -17 90 -5 0 -11 -8
-13 -18z M570 3240 c-12 -7 -12 -12 -2 -22 9 -9 15 -9 24 0 16 16 -2 34 -22
22z M1180 3240 c-12 -7 -12 -12 -2 -22 9 -9 15 -9 24 0 16 16 -2 34 -22 22z
M2621 3213 c-5 -21 -17 -80 -26 -131 -16 -84 -16 -116 1 -99 7 7 54 222 54
250 0 31 -19 18 -29 -20z M2736 3237 c-14 -10 -16 -16 -7 -22 15 -9 35 8 30
24 -3 8 -10 7 -23 -2z M6094 3237 c-2 -7 -3 -67 -2 -132 2 -84 7 -120 16 -123
9 -3 12 28 12 132 0 87 -4 136 -10 136 -6 0 -13 -6 -16 -13z M6430 3240 c-12
-7 -12 -12 -2 -22 9 -9 15 -9 24 0 16 16 -2 34 -22 22z M6784 3237 c-2 -7 -3
-67 -2 -132 2 -84 7 -120 16 -123 9 -3 12 28 12 132 0 87 -4 136 -10 136 -6 0
-13 -6 -16 -13z M6906 3242 c-2 -4 -7 -25 -11 -47 -9 -48 6 -39 30 18 13 32
13 37 1 37 -8 0 -17 -3 -20 -8z M7506 3234 c-8 -21 5 -254 14 -254 4 0 10 32
12 71 3 55 8 74 23 85 48 35 75 4 75 -87 0 -55 3 -69 15 -69 12 0 15 15 15 75
0 62 -3 78 -21 96 -16 16 -27 19 -52 14 -18 -4 -36 -8 -42 -9 -5 0 -11 20 -13
47 -3 47 -14 61 -26 31z M7740 3240 c-12 -7 -12 -12 -2 -22 9 -9 15 -9 24 0
16 16 -2 34 -22 22z M2147 3213 c-13 -59 -47 -225 -47 -229 0 -10 124 -2 154
10 63 26 107 120 87 186 -14 46 -42 60 -125 60 -61 0 -64 -1 -69 -27z m141 -9
c40 -27 24 -133 -27 -178 -29 -26 -121 -35 -121 -12 0 16 28 170 36 194 5 17
85 15 112 -4z M5373 3208 c7 -18 31 -77 53 -130 29 -72 44 -98 57 -98 19 0 19
1 73 140 20 52 39 101 41 108 3 6 -1 12 -10 12 -9 0 -28 -38 -54 -112 -22 -62
-43 -113 -47 -113 -4 0 -25 46 -46 102 -45 120 -47 123 -66 123 -12 0 -12 -5
-1 -32z M7863 3190 c-3 -11 -14 -20 -24 -20 -25 0 -24 -16 1 -23 18 -5 20 -14
20 -76 0 -75 10 -91 60 -91 28 0 21 24 -9 28 -20 3 -22 8 -19 70 3 61 5 67 26
70 26 4 20 22 -9 22 -12 0 -19 7 -19 20 0 11 -5 20 -11 20 -6 0 -13 -9 -16
-20z M8383 3190 c-3 -11 -14 -20 -24 -20 -25 0 -24 -16 1 -23 18 -5 20 -14 20
-76 0 -75 10 -91 60 -91 28 0 21 24 -9 28 -20 3 -22 8 -19 70 3 61 5 67 26 70
26 4 20 22 -9 22 -12 0 -19 7 -19 20 0 11 -5 20 -11 20 -6 0 -13 -9 -16 -20z
M3474 3172 c-6 -4 -30 -38 -54 -76 -48 -76 -51 -75 -64 17 -6 41 -27 70 -41
56 -2 -2 6 -43 17 -92 20 -87 20 -87 -1 -122 -19 -32 -19 -35 -3 -35 12 0 42
40 90 121 68 113 83 149 56 131z M842 3078 c2 -62 7 -93 16 -96 9 -3 12 14 12
60 0 67 12 94 44 100 26 4 33 28 9 28 -11 0 -25 -6 -32 -12 -11 -10 -14 -10
-18 0 -3 6 -11 12 -19 12 -12 0 -14 -17 -12 -92z M1001 3154 c-17 -7 -31 -18
-31 -24 0 -15 16 -12 30 5 19 22 57 19 65 -6 9 -26 3 -32 -48 -44 -32 -8 -44
-16 -51 -37 -17 -48 39 -86 84 -58 9 6 17 5 21 -2 16 -25 26 7 22 74 -1 40 -5
78 -7 84 -7 18 -52 22 -85 8z m66 -90 c3 -8 0 -27 -6 -40 -9 -20 -17 -25 -39
-22 -37 4 -38 47 -2 65 33 17 39 16 47 -3z M1286 3154 c-27 -27 -19 -58 21
-85 21 -13 39 -32 41 -42 5 -25 -25 -32 -48 -12 -23 21 -39 12 -24 -13 15 -24
62 -27 85 -6 32 29 24 61 -21 84 -27 14 -40 27 -40 41 0 25 25 35 45 19 20
-17 32 -5 15 15 -16 20 -54 19 -74 -1z M1478 3163 c-37 -6 -58 -38 -58 -91 0
-56 33 -92 85 -92 52 0 85 36 85 93 0 71 -39 102 -112 90z m64 -30 c23 -21 24
-89 1 -115 -20 -22 -56 -23 -77 -2 -21 21 -21 92 1 116 20 22 51 23 75 1z
M1708 3154 c-16 -8 -28 -10 -28 -4 0 5 -7 10 -15 10 -12 0 -15 -17 -15 -90 0
-73 3 -90 15 -90 12 0 15 14 15 68 0 75 10 92 52 92 36 0 48 -24 48 -99 0 -78
15 -79 23 -1 7 67 -3 104 -32 119 -25 14 -30 13 -63 -5z M3167 3093 c-10 -43
-17 -86 -17 -96 0 -24 24 -16 28 9 2 10 10 43 18 71 13 46 19 54 46 61 17 4
33 13 36 20 6 18 -29 15 -50 -5 -17 -15 -18 -15 -18 0 0 10 -6 17 -13 17 -8 0
-19 -30 -30 -77z M5678 3163 c-37 -6 -58 -38 -58 -91 0 -56 33 -92 85 -92 52
0 85 36 85 93 0 71 -39 102 -112 90z m64 -30 c23 -21 24 -89 1 -115 -20 -22
-56 -23 -77 -2 -21 21 -21 92 1 116 20 22 51 23 75 1z M5858 3163 c-3 -5 -2
-42 1 -83 6 -68 8 -76 33 -90 22 -12 33 -12 57 -4 19 8 33 8 39 2 23 -23 32 5
29 90 -2 73 -5 87 -20 90 -15 3 -17 -6 -17 -66 0 -78 -11 -95 -57 -90 -28 3
-28 4 -31 81 -2 58 -6 77 -17 77 -8 0 -15 -3 -17 -7z M6238 3163 c-37 -6 -58
-38 -58 -91 0 -56 33 -92 85 -92 52 0 85 36 85 93 0 71 -39 102 -112 90z m64
-30 c23 -21 24 -89 1 -115 -20 -22 -56 -23 -77 -2 -21 21 -21 92 1 116 20 22
51 23 75 1z M6532 3078 c2 -62 7 -93 16 -96 9 -3 12 14 12 60 0 67 12 94 44
100 26 4 33 28 9 28 -11 0 -25 -6 -32 -12 -11 -10 -14 -10 -18 0 -3 6 -11 12
-19 12 -12 0 -14 -17 -12 -92z M7011 3154 c-17 -7 -31 -18 -31 -24 0 -15 16
-12 30 5 19 22 57 19 65 -6 9 -26 3 -32 -48 -44 -32 -8 -44 -16 -51 -37 -17
-48 39 -86 84 -58 9 6 17 5 21 -2 16 -25 26 7 22 74 -1 40 -5 78 -7 84 -7 18
-52 22 -85 8z m66 -90 c3 -8 0 -27 -6 -40 -9 -20 -17 -25 -39 -22 -37 4 -38
47 -2 65 33 17 39 16 47 -3z M7172 3078 c2 -62 7 -93 16 -96 9 -3 12 14 12 60
0 67 12 94 44 100 26 4 33 28 9 28 -11 0 -25 -6 -32 -12 -11 -10 -14 -10 -18
0 -3 6 -11 12 -19 12 -12 0 -14 -17 -12 -92z M7343 3155 c-35 -15 -43 -31 -43
-91 0 -60 26 -86 82 -82 25 2 45 10 52 20 15 24 0 34 -22 15 -25 -23 -59 -21
-72 3 -18 33 -8 101 16 117 18 12 24 11 48 -8 29 -23 47 -18 30 8 -15 24 -56
32 -91 18z M8213 3155 c-35 -15 -43 -31 -43 -91 0 -60 26 -86 82 -82 25 2 45
10 52 20 15 24 0 34 -22 15 -25 -23 -59 -21 -72 3 -18 33 -8 101 16 117 18 12
24 11 48 -8 29 -23 47 -18 30 8 -15 24 -56 32 -91 18z M8518 3163 c-3 -5 -2
-42 1 -83 6 -68 8 -76 33 -90 22 -12 33 -12 57 -4 19 8 33 8 39 2 23 -23 32 5
29 90 -2 73 -5 87 -20 90 -15 3 -17 -6 -17 -66 0 -78 -11 -95 -57 -90 -28 3
-28 4 -31 81 -2 58 -6 77 -17 77 -8 0 -15 -3 -17 -7z M8742 3078 c2 -62 7 -93
16 -96 9 -3 12 14 12 60 0 67 12 94 44 100 26 4 33 28 9 28 -11 0 -25 -6 -32
-12 -11 -10 -14 -10 -18 0 -3 6 -11 12 -19 12 -12 0 -14 -17 -12 -92z M570
3070 c0 -53 4 -90 10 -90 6 0 10 37 10 90 0 53 -4 90 -10 90 -6 0 -10 -37 -10
-90z M650 3148 c0 -7 10 -47 23 -88 20 -66 26 -75 46 -75 21 0 27 9 47 80 28
95 28 95 10 95 -9 0 -20 -25 -31 -71 -10 -39 -21 -67 -26 -62 -5 5 -16 35 -26
67 -17 54 -43 87 -43 54z M1180 3070 c0 -53 4 -90 10 -90 6 0 10 37 10 90 0
53 -4 90 -10 90 -6 0 -10 -37 -10 -90z M2422 3138 c-62 -67 -52 -158 18 -158
30 0 80 34 67 46 -4 4 -19 -3 -32 -16 -32 -30 -60 -18 -60 26 0 28 1 29 58 32
57 3 57 3 57 35 0 18 -5 38 -12 45 -20 20 -72 14 -96 -10z m78 -3 c21 -26 4
-45 -40 -45 -45 0 -50 10 -20 40 24 24 43 25 60 5z M2715 3148 c-11 -31 -35
-162 -30 -166 11 -11 23 15 35 78 6 36 14 73 17 83 5 19 -15 24 -22 5z M2794
3118 c17 -141 17 -138 37 -138 16 0 62 74 107 173 2 4 -3 7 -10 7 -8 0 -29
-31 -48 -70 -35 -73 -50 -81 -50 -26 0 55 -12 96 -27 96 -11 0 -13 -10 -9 -42z
M2992 3138 c-62 -67 -52 -158 18 -158 30 0 80 34 67 46 -4 4 -19 -3 -32 -16
-32 -30 -60 -18 -60 26 0 28 1 29 58 32 57 3 57 3 57 35 0 18 -5 38 -12 45
-20 20 -72 14 -96 -10z m78 -3 c21 -26 4 -45 -40 -45 -45 0 -50 10 -20 40 24
24 43 25 60 5z M6430 3070 c0 -53 4 -90 10 -90 6 0 10 37 10 90 0 53 -4 90
-10 90 -6 0 -10 -37 -10 -90z M7740 3070 c0 -53 4 -90 10 -90 6 0 10 37 10 90
0 53 -4 90 -10 90 -6 0 -10 -37 -10 -90z M8000 3138 c-25 -27 -27 -103 -4
-136 17 -24 61 -30 95 -12 20 11 27 40 9 40 -5 0 -10 -4 -10 -10 0 -5 -9 -14
-20 -20 -30 -16 -60 4 -60 40 0 30 1 30 55 30 51 0 55 2 55 23 0 62 -76 91
-120 45z m80 -7 c17 -33 11 -41 -30 -41 -32 0 -40 4 -40 18 0 41 51 57 70 23z
M8900 3138 c-25 -27 -27 -103 -4 -136 17 -24 61 -30 95 -12 20 11 27 40 9 40
-5 0 -10 -4 -10 -10 0 -5 -9 -14 -20 -20 -30 -16 -60 4 -60 40 0 30 1 30 55
30 51 0 55 2 55 23 0 62 -76 91 -120 45z m80 -7 c17 -33 11 -41 -30 -41 -32 0
-40 4 -40 18 0 41 51 57 70 23z M1932 3093 c5 -26 38 -29 38 -4 0 15 -6 21
-21 21 -14 0 -19 -5 -17 -17z M5350 2915 c0 -13 212 -15 1845 -15 1633 0 1845
2 1845 15 0 13 -212 15 -1845 15 -1633 0 -1845 -2 -1845 -15z M322 2671 c3
-135 19 -181 28 -81 5 55 5 55 45 58 51 4 85 35 85 77 0 47 -29 68 -101 73
-60 4 -60 4 -57 -127z m106 93 c45 -31 15 -94 -45 -94 -33 0 -33 0 -33 48 0
27 3 52 7 55 11 12 48 7 71 -9z M2546 2792 c-3 -5 -17 -62 -31 -127 -17 -79
-22 -122 -15 -129 14 -14 20 -4 34 56 11 52 12 53 51 56 56 4 86 21 102 60 15
36 6 64 -27 82 -23 12 -107 13 -114 2z m95 -22 c48 -26 6 -100 -57 -100 -36 0
-36 0 -29 43 4 23 12 48 17 55 13 15 43 16 69 2z M5426 2793 c-15 -16 -3 -23
39 -23 25 0 45 -4 45 -9 0 -5 -9 -55 -20 -111 -24 -120 -24 -120 -7 -120 9 0
22 38 38 118 25 117 25 117 72 122 26 3 47 10 47 15 0 11 -203 19 -214 8z
M7413 2788 c-12 -16 -57 -247 -50 -254 12 -12 25 7 31 43 14 76 26 101 57 113
26 11 33 11 46 -2 13 -13 13 -24 3 -74 -7 -32 -15 -64 -17 -71 -3 -7 2 -13 10
-13 18 0 21 10 36 94 10 52 9 62 -6 78 -17 19 -29 19 -87 1 -16 -4 -18 -1 -13
18 3 13 9 36 12 52 7 28 -5 37 -22 15z M7646 2787 c-14 -10 -16 -16 -7 -22 15
-9 35 8 30 24 -3 8 -10 7 -23 -2z M6677 2740 c-3 -12 -14 -20 -26 -20 -12 0
-21 -4 -21 -10 0 -5 7 -10 15 -10 18 0 19 -18 3 -94 -9 -48 -9 -59 3 -67 23
-14 59 -11 59 6 0 8 -9 15 -20 15 -23 0 -24 11 -7 85 10 40 17 51 35 53 28 4
29 22 1 22 -16 0 -19 4 -14 20 4 14 2 20 -8 20 -8 0 -17 -9 -20 -20z M7757
2740 c-3 -12 -14 -20 -26 -20 -12 0 -21 -4 -21 -10 0 -5 7 -10 15 -10 18 0 19
-18 3 -94 -9 -48 -9 -59 3 -67 23 -14 59 -11 59 6 0 8 -9 15 -20 15 -23 0 -24
11 -7 85 10 40 17 51 35 53 28 4 29 22 1 22 -16 0 -19 4 -14 20 4 14 2 20 -8
20 -8 0 -17 -9 -20 -20z M8257 2740 c-3 -12 -14 -20 -26 -20 -12 0 -21 -4 -21
-10 0 -5 7 -10 15 -10 18 0 19 -18 3 -94 -9 -48 -9 -59 3 -67 23 -14 59 -11
59 6 0 8 -9 15 -20 15 -23 0 -24 11 -7 85 10 40 17 51 35 53 28 4 29 22 1 22
-16 0 -19 4 -14 20 4 14 2 20 -8 20 -8 0 -17 -9 -20 -20z M542 2628 c2 -62 7
-93 16 -96 9 -3 12 14 12 60 0 67 12 94 44 100 26 4 33 28 9 28 -11 0 -25 -6
-32 -12 -11 -10 -14 -10 -18 0 -3 6 -11 12 -19 12 -12 0 -14 -17 -12 -92z
M728 2713 c-37 -6 -58 -38 -58 -91 0 -56 33 -92 85 -92 52 0 85 36 85 93 0 71
-39 102 -112 90z m64 -30 c23 -21 24 -89 1 -115 -20 -22 -56 -23 -77 -2 -21
21 -21 92 1 116 20 22 51 23 75 1z M1102 2628 c2 -62 7 -93 16 -96 9 -3 12 14
12 60 0 67 12 94 44 100 26 4 33 28 9 28 -11 0 -25 -6 -32 -12 -11 -10 -14
-10 -18 0 -3 6 -11 12 -19 12 -12 0 -14 -17 -12 -92z M1261 2704 c-17 -7 -31
-18 -31 -24 0 -15 16 -12 30 5 19 22 57 19 65 -6 9 -26 3 -32 -48 -44 -32 -8
-44 -16 -51 -37 -17 -48 39 -86 84 -58 9 6 17 5 21 -2 16 -25 26 7 22 74 -1
40 -5 78 -7 84 -7 18 -52 22 -85 8z m66 -90 c3 -8 0 -27 -6 -40 -9 -20 -17
-25 -39 -22 -37 4 -38 47 -2 65 33 17 39 16 47 -3z M2727 2643 c-10 -43 -17
-86 -17 -96 0 -24 24 -16 28 9 2 10 10 43 18 71 13 46 19 54 46 61 17 4 33 13
36 20 6 18 -29 15 -50 -5 -17 -15 -18 -15 -18 0 0 10 -6 17 -13 17 -8 0 -19
-30 -30 -77z M2939 2713 c-54 -8 -93 -79 -77 -140 7 -27 15 -33 44 -39 67 -12
134 45 134 115 0 25 -42 72 -62 70 -7 -1 -25 -4 -39 -6z m56 -30 c37 -37 -11
-133 -67 -133 -35 0 -48 29 -37 80 14 60 69 89 104 53z M3287 2643 c-10 -43
-17 -86 -17 -96 0 -24 24 -16 28 9 2 10 10 43 18 71 13 46 19 54 46 61 17 4
33 13 36 20 6 18 -29 15 -50 -5 -17 -15 -18 -15 -18 0 0 10 -6 17 -13 17 -8 0
-19 -30 -30 -77z M3472 2704 c-18 -7 -32 -18 -32 -24 0 -15 17 -12 24 5 6 17
51 20 61 5 15 -24 -6 -47 -48 -53 -46 -6 -80 -38 -75 -70 5 -31 32 -44 68 -30
16 6 30 7 30 2 0 -5 6 -9 13 -9 19 0 48 145 33 164 -18 22 -40 25 -74 10z m40
-100 c-8 -44 -65 -73 -78 -40 -8 22 13 54 38 59 34 6 43 2 40 -19z M5719 2713
c-54 -8 -93 -79 -77 -140 7 -27 15 -33 44 -39 67 -12 134 45 134 115 0 25 -42
72 -62 70 -7 -1 -25 -4 -39 -6z m56 -30 c37 -37 -11 -133 -67 -133 -35 0 -48
29 -37 80 14 60 69 89 104 53z M5956 2711 c-3 -5 -1 -47 6 -95 14 -109 29
-111 78 -8 19 39 38 72 42 72 5 0 8 -31 8 -69 0 -108 25 -106 85 7 44 83 51
104 32 97 -7 -3 -29 -37 -47 -75 -38 -78 -48 -76 -49 8 0 55 -15 80 -36 62 -6
-5 -24 -36 -40 -70 -16 -33 -32 -60 -37 -60 -4 0 -8 21 -8 48 0 74 -16 113
-34 83z M6282 2704 c-18 -7 -32 -18 -32 -24 0 -15 17 -12 24 5 6 17 51 20 61
5 15 -24 -6 -47 -48 -53 -46 -6 -80 -38 -75 -70 5 -31 32 -44 68 -30 16 6 30
7 30 2 0 -5 6 -9 13 -9 19 0 48 145 33 164 -18 22 -40 25 -74 10z m40 -100
c-8 -44 -65 -73 -78 -40 -8 22 13 54 38 59 34 6 43 2 40 -19z M6498 2706 c-19
-10 -29 -11 -37 -3 -9 9 -14 8 -20 -2 -12 -19 -35 -160 -27 -168 11 -11 17 3
33 71 12 54 20 69 41 79 15 8 35 12 46 9 16 -3 18 -10 13 -50 -3 -26 -9 -62
-13 -81 -11 -55 18 -33 33 25 19 72 17 111 -6 124 -25 13 -31 13 -63 -4z
M6922 2704 c-18 -7 -32 -18 -32 -24 0 -15 17 -12 24 5 6 17 51 20 61 5 15 -24
-6 -47 -48 -53 -46 -6 -80 -38 -75 -70 5 -31 32 -44 68 -30 16 6 30 7 30 2 0
-5 6 -9 13 -9 19 0 48 145 33 164 -18 22 -40 25 -74 10z m40 -100 c-8 -44 -65
-73 -78 -40 -8 22 13 54 38 59 34 6 43 2 40 -19z M7057 2643 c-10 -43 -17 -86
-17 -96 0 -24 24 -16 28 9 2 10 10 43 18 71 13 46 19 54 46 61 17 4 33 13 36
20 6 18 -29 15 -50 -5 -17 -15 -18 -15 -18 0 0 10 -6 17 -13 17 -8 0 -19 -30
-30 -77z M7253 2712 c-55 -9 -100 -110 -69 -157 21 -32 84 -35 111 -5 23 25
12 39 -13 17 -28 -25 -69 -22 -76 6 -8 35 12 95 38 112 26 17 56 11 56 -11 0
-8 7 -14 16 -14 10 0 14 7 12 22 -3 23 -36 36 -75 30z M8093 2712 c-55 -9
-100 -110 -69 -157 21 -32 84 -35 111 -5 23 25 12 39 -13 17 -28 -25 -69 -22
-76 6 -8 35 12 95 38 112 26 17 56 11 56 -11 0 -8 7 -14 16 -14 10 0 14 7 12
22 -3 23 -36 36 -75 30z M8375 2708 c-10 -29 -25 -105 -25 -131 0 -36 38 -56
80 -40 20 8 31 8 39 0 19 -19 32 6 47 84 17 92 17 99 0 99 -10 0 -19 -20 -26
-57 -16 -77 -33 -103 -70 -103 -44 0 -45 4 -15 138 4 15 1 22 -10 22 -9 0 -18
-6 -20 -12z M8587 2643 c-10 -43 -17 -86 -17 -96 0 -24 24 -16 28 9 2 10 10
43 18 71 13 46 19 54 46 61 17 4 33 13 36 20 6 18 -29 15 -50 -5 -17 -15 -18
-15 -18 0 0 10 -6 17 -13 17 -8 0 -19 -30 -30 -77z M940 2702 c-28 -8 -40 -35
-40 -87 0 -73 37 -103 91 -75 17 9 19 7 19 -18 0 -15 -5 -33 -12 -40 -15 -15
-58 -16 -58 -2 0 6 -10 10 -22 10 -20 0 -21 -1 -3 -20 21 -24 72 -27 101 -6
16 12 20 29 22 116 4 113 -1 139 -22 121 -9 -7 -22 -8 -37 -3 -13 5 -31 7 -39
4z m58 -34 c15 -15 16 -72 2 -99 -27 -49 -88 2 -75 63 4 18 9 36 12 41 7 11
48 8 61 -5z M1430 2620 c0 -72 3 -90 15 -90 11 0 15 17 17 72 3 69 4 73 31 82
39 14 51 -3 55 -85 5 -90 25 -87 26 4 1 72 10 87 53 87 33 0 33 -2 42 -147 1
-7 6 -13 11 -13 13 0 13 136 0 161 -12 21 -59 26 -92 8 -14 -8 -23 -8 -31 0
-14 14 -70 14 -84 0 -8 -8 -13 -8 -17 0 -18 28 -26 3 -26 -79z M1760 2620 c0
-72 3 -90 15 -90 11 0 15 17 17 72 3 69 4 73 31 82 39 14 51 -3 55 -85 5 -90
25 -87 26 4 1 72 10 87 53 87 33 0 33 -2 42 -147 1 -7 6 -13 11 -13 13 0 13
136 0 161 -12 21 -59 26 -92 8 -14 -8 -23 -8 -31 0 -14 14 -70 14 -84 0 -8 -8
-13 -8 -17 0 -18 28 -26 3 -26 -79z M2100 2688 c-25 -27 -27 -103 -4 -136 17
-24 61 -30 95 -12 20 11 27 40 9 40 -5 0 -10 -4 -10 -10 0 -5 -9 -14 -20 -20
-30 -16 -60 4 -60 40 0 30 1 30 55 30 51 0 55 2 55 23 0 62 -76 91 -120 45z
m80 -7 c17 -33 11 -41 -30 -41 -32 0 -40 4 -40 18 0 41 51 57 70 23z M3129
2697 c-28 -14 -59 -71 -59 -109 0 -47 39 -70 81 -48 15 9 19 7 19 -7 0 -30
-29 -63 -55 -63 -13 0 -25 5 -27 11 -2 6 -12 10 -23 8 -18 -4 -18 -5 -1 -21
24 -25 70 -22 100 5 18 16 30 45 46 110 25 111 26 131 3 118 -9 -5 -26 -5 -38
-1 -13 5 -31 4 -46 -3z m61 -57 c0 -47 -33 -92 -64 -88 -42 6 -27 111 18 128
33 12 46 1 46 -40z M3627 2703 c-3 -5 -10 -35 -16 -68 -7 -33 -14 -70 -17 -82
-3 -16 0 -23 10 -23 10 0 17 14 21 38 16 95 47 135 91 118 14 -5 15 -15 10
-59 -4 -28 -10 -63 -13 -76 -4 -17 -2 -22 8 -19 7 2 20 35 29 72 18 73 31 88
70 84 28 -3 30 -21 15 -112 -12 -74 16 -55 33 23 19 86 12 111 -33 111 -20 0
-45 -6 -56 -12 -17 -10 -23 -10 -26 0 -3 6 -19 12 -37 12 -18 0 -38 -6 -45
-12 -11 -10 -14 -10 -18 0 -5 13 -19 16 -26 5z M7625 2698 c-11 -31 -35 -162
-30 -166 11 -11 23 15 35 78 6 36 14 73 17 83 5 19 -15 24 -22 5z M7882 2688
c-62 -67 -52 -158 18 -158 30 0 80 34 67 46 -4 4 -19 -3 -32 -16 -32 -30 -60
-18 -60 26 0 28 1 29 58 32 57 3 57 3 57 35 0 18 -5 38 -12 45 -20 20 -72 14
-96 -10z m78 -3 c21 -26 4 -45 -40 -45 -45 0 -50 10 -20 40 24 24 43 25 60 5z
M8742 2688 c-62 -67 -52 -158 18 -158 30 0 80 34 67 46 -4 4 -19 -3 -32 -16
-32 -30 -60 -18 -60 26 0 28 1 29 58 32 57 3 57 3 57 35 0 18 -5 38 -12 45
-20 20 -72 14 -96 -10z m78 -3 c21 -26 4 -45 -40 -45 -45 0 -50 10 -20 40 24
24 43 25 60 5z M2322 2643 c5 -26 38 -29 38 -4 0 15 -6 21 -21 21 -14 0 -19
-5 -17 -17z M5350 2470 c0 -7 590 -10 1750 -10 1160 0 1750 3 1750 10 0 7
-590 10 -1750 10 -1160 0 -1750 -3 -1750 -10z M381 2328 c-5 -13 -27 -68 -50
-123 -23 -55 -41 -106 -41 -112 0 -27 22 -11 37 27 16 40 16 40 83 40 68 0 68
0 84 -40 9 -22 23 -40 31 -40 23 0 23 1 -45 155 -10 22 -25 57 -33 78 -19 43
-52 51 -66 15z m58 -69 c31 -75 29 -79 -29 -79 -36 0 -50 4 -50 14 0 20 41
116 50 116 4 0 17 -23 29 -51z M1910 2347 c0 -2 -11 -59 -25 -127 -14 -68 -25
-127 -25 -132 0 -5 38 -7 85 -6 100 4 117 23 20 23 -74 0 -72 -4 -54 91 26
140 27 146 12 151 -7 3 -13 3 -13 0z M2886 2337 c-14 -10 -16 -16 -7 -22 15
-9 35 8 30 24 -3 8 -10 7 -23 -2z M720 2290 c0 -27 -2 -50 -5 -50 -3 0 -16 7
-29 15 -18 12 -29 13 -55 4 -36 -13 -51 -41 -51 -98 0 -64 64 -101 121 -71 13
7 19 7 19 0 0 -5 7 -10 15 -10 13 0 15 21 15 130 0 109 -2 130 -15 130 -11 0
-15 -12 -15 -50z m-20 -60 c29 -29 28 -103 -2 -124 -30 -21 -44 -20 -68 4 -29
29 -28 103 2 124 30 21 44 20 68 -4z M2737 2290 c-3 -12 -14 -20 -26 -20 -12
0 -21 -4 -21 -10 0 -5 7 -10 15 -10 18 0 19 -18 3 -94 -9 -48 -9 -59 3 -67 23
-14 59 -11 59 6 0 8 -9 15 -20 15 -23 0 -24 11 -7 85 10 40 17 51 35 53 28 4
29 22 1 22 -16 0 -19 4 -14 20 4 14 2 20 -8 20 -8 0 -17 -9 -20 -20z M812
2178 c2 -62 7 -93 16 -96 9 -3 12 14 12 60 0 67 12 94 44 100 26 4 33 28 9 28
-11 0 -25 -6 -32 -12 -11 -10 -14 -10 -18 0 -3 6 -11 12 -19 12 -12 0 -14 -17
-12 -92z M1146 2254 c-27 -27 -19 -58 21 -85 21 -13 39 -32 41 -42 5 -25 -25
-32 -48 -12 -23 21 -39 12 -24 -13 15 -24 62 -27 85 -6 32 29 24 61 -21 84
-27 14 -40 27 -40 41 0 25 25 35 45 19 20 -17 32 -5 15 15 -16 20 -54 19 -74
-1z M1306 2254 c-27 -27 -19 -58 21 -85 21 -13 39 -32 41 -42 5 -25 -25 -32
-48 -12 -23 21 -39 12 -24 -13 15 -24 62 -27 85 -6 32 29 24 61 -21 84 -27 14
-40 27 -40 41 0 25 25 35 45 19 20 -17 32 -5 15 15 -16 20 -54 19 -74 -1z
M2169 2263 c-54 -8 -93 -79 -77 -140 7 -27 15 -33 44 -39 67 -12 134 45 134
115 0 25 -42 72 -62 70 -7 -1 -25 -4 -39 -6z m56 -30 c37 -37 -11 -133 -67
-133 -35 0 -48 29 -37 80 14 60 69 89 104 53z M2393 2262 c-55 -9 -100 -110
-69 -157 21 -32 84 -35 111 -5 23 25 12 39 -13 17 -28 -25 -69 -22 -76 6 -8
35 12 95 38 112 26 17 56 11 56 -11 0 -8 7 -14 16 -14 10 0 14 7 12 22 -3 23
-36 36 -75 30z M2562 2254 c-18 -7 -32 -18 -32 -24 0 -15 17 -12 24 5 6 17 51
20 61 5 15 -24 -6 -47 -48 -53 -46 -6 -80 -38 -75 -70 5 -31 32 -44 68 -30 16
6 30 7 30 2 0 -5 6 -9 13 -9 19 0 48 145 33 164 -18 22 -40 25 -74 10z m40
-100 c-8 -44 -65 -73 -78 -40 -8 22 13 54 38 59 34 6 43 2 40 -19z M3019 2263
c-54 -8 -93 -79 -77 -140 7 -27 15 -33 44 -39 67 -12 134 45 134 115 0 25 -42
72 -62 70 -7 -1 -25 -4 -39 -6z m56 -30 c37 -37 -11 -133 -67 -133 -35 0 -48
29 -37 80 14 60 69 89 104 53z M3248 2256 c-19 -10 -29 -11 -37 -3 -9 9 -14 8
-20 -2 -12 -19 -35 -160 -27 -168 11 -11 17 3 33 71 12 54 20 69 41 79 15 8
35 12 46 9 16 -3 18 -10 13 -50 -3 -26 -9 -62 -13 -81 -11 -55 18 -33 33 25
19 72 17 111 -6 124 -25 13 -31 13 -63 -4z M960 2238 c-25 -27 -27 -103 -4
-136 17 -24 61 -30 95 -12 20 11 27 40 9 40 -5 0 -10 -4 -10 -10 0 -5 -9 -14
-20 -20 -30 -16 -60 4 -60 40 0 30 1 30 55 30 51 0 55 2 55 23 0 62 -76 91
-120 45z m80 -7 c17 -33 11 -41 -30 -41 -32 0 -40 4 -40 18 0 41 51 57 70 23z
M1460 2238 c-25 -27 -27 -103 -4 -136 17 -24 61 -30 95 -12 20 11 27 40 9 40
-5 0 -10 -4 -10 -10 0 -5 -9 -14 -20 -20 -30 -16 -60 4 -60 40 0 30 1 30 55
30 51 0 55 2 55 23 0 62 -76 91 -120 45z m80 -7 c17 -33 11 -41 -30 -41 -32 0
-40 4 -40 18 0 41 51 57 70 23z M2865 2248 c-11 -31 -35 -162 -30 -166 11 -11
23 15 35 78 6 36 14 73 17 83 5 19 -15 24 -22 5z M1682 2193 c5 -26 38 -29 38
-4 0 15 -6 21 -21 21 -14 0 -19 -5 -17 -17z M5842 2193 c5 -26 38 -29 38 -4 0
15 -6 21 -21 21 -14 0 -19 -5 -17 -17z M357 1889 c-41 -24 -63 -128 -39 -190
27 -69 115 -91 171 -43 31 26 41 54 19 54 -7 0 -22 -12 -33 -27 -25 -31 -76
-35 -106 -7 -40 36 -33 171 11 194 35 19 78 12 96 -15 16 -25 44 -34 44 -15 0
6 -11 22 -25 35 -19 20 -34 25 -72 25 -26 0 -56 -5 -66 -11z M1453 1888 c-10
-13 -42 -153 -51 -222 -4 -39 -4 -39 68 -34 60 5 76 10 97 31 30 29 34 75 8
94 -17 12 -17 14 8 37 31 29 35 66 9 89 -23 21 -124 24 -139 5z m94 -14 c62
-17 21 -94 -50 -94 -39 0 -39 0 -32 43 4 23 9 45 12 50 5 8 39 9 70 1z m1
-126 c17 -17 15 -48 -5 -70 -11 -13 -30 -18 -65 -18 -46 0 -48 1 -43 25 3 14
7 36 10 50 5 22 11 25 48 25 24 0 48 -5 55 -12z M1936 1887 c-14 -10 -16 -16
-7 -22 15 -9 35 8 30 24 -3 8 -10 7 -23 -2z M2041 1863 c-5 -21 -17 -80 -26
-131 -16 -84 -16 -116 1 -99 7 7 54 222 54 250 0 31 -19 18 -29 -20z M2386
1887 c-14 -10 -16 -16 -7 -22 15 -9 35 8 30 24 -3 8 -10 7 -23 -2z M5408 1882
c-4 -15 -4 -54 1 -219 1 -33 1 -33 86 -33 69 0 85 3 85 15 0 12 -14 15 -70 15
-70 0 -70 0 -71 53 -1 28 -1 72 -1 97 1 56 -6 90 -17 90 -5 0 -11 -8 -13 -18z
M850 1870 c-13 -24 4 -28 18 -4 8 14 10 14 21 0 19 -23 33 -20 19 4 -7 11 -21
20 -30 20 -10 0 -22 -9 -28 -20z M2264 1840 c-7 -54 -10 -57 -38 -35 -42 32
-106 -9 -126 -81 -11 -38 -10 -47 4 -69 18 -27 61 -34 97 -15 13 7 19 7 19 0
0 -5 6 -10 13 -10 9 0 22 42 40 123 32 143 31 137 12 137 -10 0 -16 -16 -21
-50z m-43 -50 c39 -22 14 -131 -33 -143 -33 -9 -71 19 -64 46 3 12 6 30 6 40
0 20 43 67 60 67 6 0 20 -5 31 -10z M7630 1840 c0 -27 -2 -50 -5 -50 -3 0 -16
7 -29 15 -18 12 -29 13 -55 4 -36 -13 -51 -41 -51 -98 0 -64 64 -101 121 -71
13 7 19 7 19 0 0 -5 7 -10 15 -10 13 0 15 21 15 130 0 109 -2 130 -15 130 -11
0 -15 -12 -15 -50z m-20 -60 c29 -29 28 -103 -2 -124 -30 -21 -44 -20 -68 4
-29 29 -28 103 2 124 30 21 44 20 68 -4z M1043 1840 c-3 -11 -14 -20 -24 -20
-25 0 -24 -16 1 -23 18 -5 20 -14 20 -76 0 -75 10 -91 60 -91 28 0 21 24 -9
28 -20 3 -22 8 -19 70 3 61 5 67 26 70 26 4 20 22 -9 22 -12 0 -19 7 -19 20 0
11 -5 20 -11 20 -6 0 -13 -9 -16 -20z M3577 1840 c-3 -12 -14 -20 -26 -20 -12
0 -21 -4 -21 -10 0 -5 7 -10 15 -10 18 0 19 -18 3 -94 -9 -48 -9 -59 3 -67 23
-14 59 -11 59 6 0 8 -9 15 -20 15 -23 0 -24 11 -7 85 10 40 17 51 35 53 28 4
29 22 1 22 -16 0 -19 4 -14 20 4 14 2 20 -8 20 -8 0 -17 -9 -20 -20z M6563
1840 c-3 -11 -14 -20 -24 -20 -25 0 -24 -16 1 -23 18 -5 20 -14 20 -76 0 -75
10 -91 60 -91 28 0 21 24 -9 28 -20 3 -22 8 -19 70 3 61 5 67 26 70 26 4 20
22 -9 22 -12 0 -19 7 -19 20 0 11 -5 20 -11 20 -6 0 -13 -9 -16 -20z M7093
1840 c-3 -11 -14 -20 -24 -20 -25 0 -24 -16 1 -23 18 -5 20 -14 20 -76 0 -75
10 -91 60 -91 28 0 21 24 -9 28 -20 3 -22 8 -19 70 3 61 5 67 26 70 26 4 20
22 -9 22 -12 0 -19 7 -19 20 0 11 -5 20 -11 20 -6 0 -13 -9 -16 -20z M628
1813 c-37 -6 -58 -38 -58 -91 0 -56 33 -92 85 -92 52 0 85 36 85 93 0 71 -39
102 -112 90z m64 -30 c23 -21 24 -89 1 -115 -20 -22 -56 -23 -77 -2 -21 21
-21 92 1 116 20 22 51 23 75 1z M1685 1808 c-10 -29 -25 -105 -25 -131 0 -36
38 -56 80 -40 20 8 31 8 39 0 19 -19 32 6 47 84 17 92 17 99 0 99 -10 0 -19
-20 -26 -57 -16 -77 -33 -103 -70 -103 -44 0 -45 4 -15 138 4 15 1 22 -10 22
-9 0 -18 -6 -20 -12z M2528 1806 c-19 -10 -29 -11 -37 -3 -9 9 -14 8 -20 -2
-12 -19 -35 -160 -27 -168 11 -11 17 3 33 71 12 54 20 69 41 79 15 8 35 12 46
9 16 -3 18 -10 13 -50 -3 -26 -9 -62 -13 -81 -11 -55 18 -33 33 25 19 72 17
111 -6 124 -25 13 -31 13 -63 -4z M3023 1812 c-55 -9 -100 -110 -69 -157 21
-32 84 -35 111 -5 23 25 12 39 -13 17 -28 -25 -69 -22 -76 6 -8 35 12 95 38
112 26 17 56 11 56 -11 0 -8 7 -14 16 -14 10 0 14 7 12 22 -3 23 -36 36 -75
30z M3219 1813 c-54 -8 -93 -79 -77 -140 7 -27 15 -33 44 -39 67 -12 134 45
134 115 0 25 -42 72 -62 70 -7 -1 -25 -4 -39 -6z m56 -30 c37 -37 -11 -133
-67 -133 -35 0 -48 29 -37 80 14 60 69 89 104 53z M3392 1804 c-33 -23 -29
-65 8 -87 31 -19 34 -25 24 -51 -8 -21 -34 -20 -49 1 -17 23 -38 8 -25 -18 14
-25 64 -25 90 1 29 29 26 62 -10 83 -32 19 -40 54 -15 63 8 4 22 1 30 -6 19
-16 40 -3 24 16 -15 18 -49 18 -77 -2z M5943 1805 c-35 -15 -43 -31 -43 -91 0
-60 26 -86 82 -82 25 2 45 10 52 20 15 24 0 34 -22 15 -25 -23 -59 -21 -72 3
-18 33 -8 101 16 117 18 12 24 11 48 -8 29 -23 47 -18 30 8 -15 24 -56 32 -91
18z M6148 1813 c-37 -6 -58 -38 -58 -91 0 -56 33 -92 85 -92 52 0 85 36 85 93
0 71 -39 102 -112 90z m64 -30 c23 -21 24 -89 1 -115 -20 -22 -56 -23 -77 -2
-21 21 -21 92 1 116 20 22 51 23 75 1z M6378 1804 c-16 -8 -28 -10 -28 -4 0 5
-7 10 -15 10 -12 0 -15 -17 -15 -90 0 -73 3 -90 15 -90 12 0 15 14 15 68 0 75
10 92 52 92 36 0 48 -24 48 -99 0 -78 15 -79 23 -1 7 67 -3 104 -32 119 -25
14 -30 13 -63 -5z M6850 1810 c0 -5 14 -25 31 -44 31 -36 31 -36 8 -68 -13
-18 -27 -34 -31 -36 -11 -5 -10 -32 1 -32 5 0 23 17 40 37 31 38 31 38 62 0
17 -20 37 -37 45 -37 20 0 18 5 -16 56 -32 46 -31 64 4 94 9 7 16 19 16 26 0
25 -28 15 -47 -16 -22 -38 -33 -38 -58 0 -19 28 -55 42 -55 20z M800 1740 c0
-57 4 -74 20 -90 24 -24 48 -25 77 -5 19 13 22 13 27 0 3 -8 10 -15 16 -15 6
0 10 35 10 91 0 68 -3 90 -12 87 -8 -3 -15 -31 -18 -74 -5 -64 -7 -69 -32 -78
-44 -15 -58 5 -58 85 0 55 -3 69 -15 69 -12 0 -15 -14 -15 -70z M1915 1798
c-11 -31 -35 -162 -30 -166 11 -11 23 15 35 78 6 36 14 73 17 83 5 19 -15 24
-22 5z M2365 1798 c-11 -31 -35 -162 -30 -166 11 -11 23 15 35 78 6 36 14 73
17 83 5 19 -15 24 -22 5z M2719 1797 c-28 -14 -59 -71 -59 -109 0 -47 39 -70
81 -48 15 9 19 7 19 -7 0 -30 -29 -63 -55 -63 -13 0 -25 5 -27 11 -2 6 -12 10
-23 8 -18 -4 -18 -5 -1 -21 24 -25 70 -22 100 5 18 16 30 45 46 110 25 111 26
131 3 118 -9 -5 -26 -5 -38 -1 -13 5 -31 4 -46 -3z m61 -57 c0 -47 -33 -92
-64 -88 -42 6 -27 111 18 128 33 12 46 1 46 -40z M5640 1788 c-25 -27 -27
-103 -4 -136 17 -24 61 -30 95 -12 20 11 27 40 9 40 -5 0 -10 -4 -10 -10 0 -5
-9 -14 -20 -20 -30 -16 -60 4 -60 40 0 30 1 30 55 30 51 0 55 2 55 23 0 62
-76 91 -120 45z m80 -7 c17 -33 11 -41 -30 -41 -32 0 -40 4 -40 18 0 41 51 57
70 23z M6700 1788 c-25 -27 -27 -103 -4 -136 17 -24 61 -30 95 -12 20 11 27
40 9 40 -5 0 -10 -4 -10 -10 0 -5 -9 -14 -20 -20 -30 -16 -60 4 -60 40 0 30 1
30 55 30 51 0 55 2 55 23 0 62 -76 91 -120 45z m80 -7 c17 -33 11 -41 -30 -41
-32 0 -40 4 -40 18 0 41 51 57 70 23z M7230 1788 c-25 -27 -27 -103 -4 -136
17 -24 61 -30 95 -12 20 11 27 40 9 40 -5 0 -10 -4 -10 -10 0 -5 -9 -14 -20
-20 -30 -16 -60 4 -60 40 0 30 1 30 55 30 51 0 55 2 55 23 0 62 -76 91 -120
45z m80 -7 c17 -33 11 -41 -30 -41 -32 0 -40 4 -40 18 0 41 51 57 70 23z
M7740 1788 c-25 -27 -27 -103 -4 -136 17 -24 61 -30 95 -12 20 11 27 40 9 40
-5 0 -10 -4 -10 -10 0 -5 -9 -14 -20 -20 -30 -16 -60 4 -60 40 0 30 1 30 55
30 51 0 55 2 55 23 0 62 -76 91 -120 45z m80 -7 c17 -33 11 -41 -30 -41 -32 0
-40 4 -40 18 0 41 51 57 70 23z M1222 1743 c5 -26 38 -29 38 -4 0 15 -6 21
-21 21 -14 0 -19 -5 -17 -17z M5350 1565 c0 -13 153 -15 1315 -15 1162 0 1315
2 1315 15 0 13 -153 15 -1315 15 -1162 0 -1315 -2 -1315 -15z M1202 1318 c-45
-131 -56 -175 -37 -157 4 5 84 234 100 287 3 12 2 22 -2 22 -5 0 -33 -68 -61
-152z M4293 1321 c-82 -148 -91 -167 -74 -157 10 7 171 289 171 301 0 23 -27
-17 -97 -144z M357 1439 c-41 -24 -63 -128 -39 -190 27 -69 115 -91 171 -43
31 26 41 54 19 54 -7 0 -22 -12 -33 -27 -25 -31 -76 -35 -106 -7 -40 36 -33
171 11 194 35 19 78 12 96 -15 16 -25 44 -34 44 -15 0 6 -11 22 -25 35 -19 20
-34 25 -72 25 -26 0 -56 -5 -66 -11z M2023 1438 c-10 -13 -42 -153 -51 -222
-4 -39 -4 -39 68 -34 60 5 76 10 97 31 30 29 34 75 8 94 -17 12 -17 14 8 37
31 29 35 66 9 89 -23 21 -124 24 -139 5z m94 -14 c62 -17 21 -94 -50 -94 -39
0 -39 0 -32 43 4 23 9 45 12 50 5 8 39 9 70 1z m1 -126 c17 -17 15 -48 -5 -70
-11 -13 -30 -18 -65 -18 -46 0 -48 1 -43 25 3 14 7 36 10 50 5 22 11 25 48 25
24 0 48 -5 55 -12z M2516 1437 c-14 -10 -16 -16 -7 -22 15 -9 35 8 30 24 -3 8
-10 7 -23 -2z M2621 1413 c-5 -21 -17 -80 -26 -131 -16 -84 -16 -116 1 -99 7
7 54 222 54 250 0 31 -19 18 -29 -20z M2966 1437 c-14 -10 -16 -16 -7 -22 15
-9 35 8 30 24 -3 8 -10 7 -23 -2z M5404 1437 c-2 -7 -3 -67 -2 -132 2 -84 7
-120 16 -123 9 -3 12 28 12 132 0 87 -4 136 -10 136 -6 0 -13 -6 -16 -13z
M5526 1442 c-2 -4 -7 -25 -11 -47 -9 -48 6 -39 30 18 13 32 13 37 1 37 -8 0
-17 -3 -20 -8z M6126 1434 c-8 -21 5 -254 14 -254 4 0 10 32 12 71 3 55 8 74
23 85 48 35 75 4 75 -87 0 -55 3 -69 15 -69 12 0 15 15 15 75 0 62 -3 78 -21
96 -16 16 -27 19 -52 14 -18 -4 -36 -8 -42 -9 -5 0 -11 20 -13 47 -3 47 -14
61 -26 31z M6360 1440 c-12 -7 -12 -12 -2 -22 9 -9 15 -9 24 0 16 16 -2 34
-22 22z M850 1420 c-13 -24 4 -28 18 -4 8 14 10 14 21 0 19 -23 33 -20 19 4
-7 11 -21 20 -30 20 -10 0 -22 -9 -28 -20z M1625 1429 c-4 -6 -4 -13 0 -17 3
-3 10 0 14 7 12 18 45 10 49 -13 3 -11 -12 -35 -39 -62 -43 -44 -43 -44 6 -43
44 1 46 2 17 8 -34 6 -34 6 -7 31 39 36 48 56 35 80 -12 22 -64 28 -75 9z
M2844 1390 c-7 -54 -10 -57 -38 -35 -42 32 -106 -9 -126 -81 -11 -38 -10 -47
4 -69 18 -27 61 -34 97 -15 13 7 19 7 19 0 0 -5 6 -10 13 -10 9 0 22 42 40
123 32 143 31 137 12 137 -10 0 -16 -16 -21 -50z m-43 -50 c39 -22 14 -131
-33 -143 -33 -9 -71 19 -64 46 3 12 6 30 6 40 0 20 43 67 60 67 6 0 20 -5 31
-10z M4740 1426 c-8 -11 -9 -16 -1 -16 6 0 11 5 11 11 0 15 42 7 48 -9 2 -7
-20 -35 -49 -63 -54 -49 -54 -49 -4 -48 45 2 47 2 15 8 -35 6 -35 6 8 41 33
26 42 40 40 60 -4 30 -47 40 -68 16z M1043 1390 c-3 -11 -14 -20 -24 -20 -25
0 -24 -16 1 -23 18 -5 20 -14 20 -76 0 -75 10 -91 60 -91 28 0 21 24 -9 28
-20 3 -22 8 -19 70 3 61 5 67 26 70 26 4 20 22 -9 22 -12 0 -19 7 -19 20 0 11
-5 20 -11 20 -6 0 -13 -9 -16 -20z M4157 1390 c-3 -12 -14 -20 -26 -20 -12 0
-21 -4 -21 -10 0 -5 7 -10 15 -10 18 0 19 -18 3 -94 -9 -48 -9 -59 3 -67 23
-14 59 -11 59 6 0 8 -9 15 -20 15 -23 0 -24 11 -7 85 10 40 17 51 35 53 28 4
29 22 1 22 -16 0 -19 4 -14 20 4 14 2 20 -8 20 -8 0 -17 -9 -20 -20z M6483
1390 c-3 -11 -14 -20 -24 -20 -25 0 -24 -16 1 -23 18 -5 20 -14 20 -76 0 -75
10 -91 60 -91 28 0 21 24 -9 28 -20 3 -22 8 -19 70 3 61 5 67 26 70 26 4 20
22 -9 22 -12 0 -19 7 -19 20 0 11 -5 20 -11 20 -6 0 -13 -9 -16 -20z M7013
1390 c-3 -11 -14 -20 -24 -20 -25 0 -24 -16 1 -23 18 -5 20 -14 20 -76 0 -75
10 -91 60 -91 28 0 21 24 -9 28 -20 3 -22 8 -19 70 3 61 5 67 26 70 26 4 20
22 -9 22 -12 0 -19 7 -19 20 0 11 -5 20 -11 20 -6 0 -13 -9 -16 -20z M628
1363 c-37 -6 -58 -38 -58 -91 0 -56 33 -92 85 -92 52 0 85 36 85 93 0 71 -39
102 -112 90z m64 -30 c23 -21 24 -89 1 -115 -20 -22 -56 -23 -77 -2 -21 21
-21 92 1 116 20 22 51 23 75 1z M2265 1358 c-10 -29 -25 -105 -25 -131 0 -36
38 -56 80 -40 20 8 31 8 39 0 19 -19 32 6 47 84 17 92 17 99 0 99 -10 0 -19
-20 -26 -57 -16 -77 -33 -103 -70 -103 -44 0 -45 4 -15 138 4 15 1 22 -10 22
-9 0 -18 -6 -20 -12z M3108 1356 c-19 -10 -29 -11 -37 -3 -9 9 -14 8 -20 -2
-12 -19 -35 -160 -27 -168 11 -11 17 3 33 71 12 54 20 69 41 79 15 8 35 12 46
9 16 -3 18 -10 13 -50 -3 -26 -9 -62 -13 -81 -11 -55 18 -33 33 25 19 72 17
111 -6 124 -25 13 -31 13 -63 -4z M3603 1362 c-55 -9 -100 -110 -69 -157 21
-32 84 -35 111 -5 23 25 12 39 -13 17 -28 -25 -69 -22 -76 6 -8 35 12 95 38
112 26 17 56 11 56 -11 0 -8 7 -14 16 -14 10 0 14 7 12 22 -3 23 -36 36 -75
30z M3799 1363 c-54 -8 -93 -79 -77 -140 7 -27 15 -33 44 -39 67 -12 134 45
134 115 0 25 -42 72 -62 70 -7 -1 -25 -4 -39 -6z m56 -30 c37 -37 -11 -133
-67 -133 -35 0 -48 29 -37 80 14 60 69 89 104 53z M3972 1354 c-33 -23 -29
-65 8 -87 31 -19 34 -25 24 -51 -8 -21 -34 -20 -49 1 -17 23 -38 8 -25 -18 14
-25 64 -25 90 1 29 29 26 62 -10 83 -32 19 -40 54 -15 63 8 4 22 1 30 -6 19
-16 40 -3 24 16 -15 18 -49 18 -77 -2z M5631 1354 c-17 -7 -31 -18 -31 -24 0
-15 16 -12 30 5 19 22 57 19 65 -6 9 -26 3 -32 -48 -44 -32 -8 -44 -16 -51
-37 -17 -48 39 -86 84 -58 9 6 17 5 21 -2 16 -25 26 7 22 74 -1 40 -5 78 -7
84 -7 18 -52 22 -85 8z m66 -90 c3 -8 0 -27 -6 -40 -9 -20 -17 -25 -39 -22
-37 4 -38 47 -2 65 33 17 39 16 47 -3z M5792 1278 c2 -62 7 -93 16 -96 9 -3
12 14 12 60 0 67 12 94 44 100 26 4 33 28 9 28 -11 0 -25 -6 -32 -12 -11 -10
-14 -10 -18 0 -3 6 -11 12 -19 12 -12 0 -14 -17 -12 -92z M5973 1355 c-35 -15
-43 -31 -43 -91 0 -60 26 -86 82 -82 25 2 45 10 52 20 15 24 0 34 -22 15 -25
-23 -59 -21 -72 3 -18 33 -8 101 16 117 18 12 24 11 48 -8 29 -23 47 -18 30 8
-15 24 -56 32 -91 18z M6833 1355 c-35 -15 -43 -31 -43 -91 0 -60 26 -86 82
-82 25 2 45 10 52 20 15 24 0 34 -22 15 -25 -23 -59 -21 -72 3 -18 33 -8 101
16 117 18 12 24 11 48 -8 29 -23 47 -18 30 8 -15 24 -56 32 -91 18z M7138
1363 c-3 -5 -2 -42 1 -83 6 -68 8 -76 33 -90 22 -12 33 -12 57 -4 19 8 33 8
39 2 23 -23 32 5 29 90 -2 73 -5 87 -20 90 -15 3 -17 -6 -17 -66 0 -78 -11
-95 -57 -90 -28 3 -28 4 -31 81 -2 58 -6 77 -17 77 -8 0 -15 -3 -17 -7z M7372
1278 c2 -62 7 -93 16 -96 9 -3 12 14 12 60 0 67 12 94 44 100 26 4 33 28 9 28
-11 0 -25 -6 -32 -12 -11 -10 -14 -10 -18 0 -3 6 -11 12 -19 12 -12 0 -14 -17
-12 -92z M800 1290 c0 -57 4 -74 20 -90 24 -24 48 -25 77 -5 19 13 22 13 27 0
3 -8 10 -15 16 -15 6 0 10 35 10 91 0 68 -3 90 -12 87 -8 -3 -15 -31 -18 -74
-5 -64 -7 -69 -32 -78 -44 -15 -58 5 -58 85 0 55 -3 69 -15 69 -12 0 -15 -14
-15 -70z M1290 1270 c0 -72 3 -90 15 -90 11 0 15 17 17 72 3 69 4 73 31 82 39
14 51 -3 55 -85 5 -90 25 -87 26 4 1 72 10 87 53 87 33 0 33 -2 42 -147 1 -7
6 -13 11 -13 13 0 13 136 0 161 -12 21 -59 26 -92 8 -14 -8 -23 -8 -31 0 -14
14 -70 14 -84 0 -8 -8 -13 -8 -17 0 -18 28 -26 3 -26 -79z M2495 1348 c-11
-31 -35 -162 -30 -166 11 -11 23 15 35 78 6 36 14 73 17 83 5 19 -15 24 -22 5z
M2945 1348 c-11 -31 -35 -162 -30 -166 11 -11 23 15 35 78 6 36 14 73 17 83 5
19 -15 24 -22 5z M3299 1347 c-28 -14 -59 -71 -59 -109 0 -47 39 -70 81 -48
15 9 19 7 19 -7 0 -30 -29 -63 -55 -63 -13 0 -25 5 -27 11 -2 6 -12 10 -23 8
-18 -4 -18 -5 -1 -21 24 -25 70 -22 100 5 18 16 30 45 46 110 25 111 26 131 3
118 -9 -5 -26 -5 -38 -1 -13 5 -31 4 -46 -3z m61 -57 c0 -47 -33 -92 -64 -88
-42 6 -27 111 18 128 33 12 46 1 46 -40z M4397 1353 c-3 -5 -10 -35 -16 -68
-7 -33 -14 -70 -17 -82 -3 -16 0 -23 10 -23 10 0 17 14 21 38 16 95 47 135 91
118 14 -5 15 -15 10 -59 -4 -28 -10 -63 -13 -76 -4 -17 -2 -22 8 -19 7 2 20
35 29 72 18 73 31 88 70 84 28 -3 30 -21 15 -112 -12 -74 16 -55 33 23 19 86
12 111 -33 111 -20 0 -45 -6 -56 -12 -17 -10 -23 -10 -26 0 -3 6 -19 12 -37
12 -18 0 -38 -6 -45 -12 -11 -10 -14 -10 -18 0 -5 13 -19 16 -26 5z M6360
1270 c0 -53 4 -90 10 -90 6 0 10 37 10 90 0 53 -4 90 -10 90 -6 0 -10 -37 -10
-90z M6620 1338 c-25 -27 -27 -103 -4 -136 17 -24 61 -30 95 -12 20 11 27 40
9 40 -5 0 -10 -4 -10 -10 0 -5 -9 -14 -20 -20 -30 -16 -60 4 -60 40 0 30 1 30
55 30 51 0 55 2 55 23 0 62 -76 91 -120 45z m80 -7 c17 -33 11 -41 -30 -41
-32 0 -40 4 -40 18 0 41 51 57 70 23z M7520 1338 c-25 -27 -27 -103 -4 -136
17 -24 61 -30 95 -12 20 11 27 40 9 40 -5 0 -10 -4 -10 -10 0 -5 -9 -14 -20
-20 -30 -16 -60 4 -60 40 0 30 1 30 55 30 51 0 55 2 55 23 0 62 -76 91 -120
45z m80 -7 c17 -33 11 -41 -30 -41 -32 0 -40 4 -40 18 0 41 51 57 70 23z
M1802 1293 c5 -26 38 -29 38 -4 0 15 -6 21 -21 21 -14 0 -19 -5 -17 -17z
M5350 1115 c0 -13 135 -15 1155 -15 1020 0 1155 2 1155 15 0 13 -135 15 -1155
15 -1020 0 -1155 -2 -1155 -15z M2210 1009 c-6 -11 -18 -50 -25 -86 -15 -71
-7 -139 21 -195 18 -34 38 -38 28 -5 -28 87 -31 180 -9 253 18 59 17 54 5 54
-5 0 -14 -9 -20 -21z M3404 1010 c27 -114 30 -159 14 -232 -16 -73 -15 -95 3
-68 33 52 45 163 26 231 -17 58 -54 118 -43 69z M365 1003 c-34 -9 -55 -35
-55 -68 0 -39 20 -58 85 -82 44 -16 50 -22 53 -51 3 -26 -1 -34 -22 -43 -32
-15 -77 -3 -83 21 -3 11 -14 20 -24 20 -21 0 -17 -22 9 -52 24 -29 106 -24
137 7 14 13 25 34 25 45 0 25 -51 80 -75 80 -9 0 -29 7 -45 15 -32 16 -40 51
-18 73 19 19 66 14 85 -8 20 -23 43 -26 43 -7 0 34 -67 63 -115 50z M3813 996
c-37 -17 -55 -47 -51 -84 2 -22 14 -32 61 -54 58 -28 66 -42 47 -78 -20 -37
-110 -33 -110 5 0 8 -7 15 -15 15 -18 0 -20 -41 -3 -58 16 -16 96 -15 127 1
14 6 30 26 37 43 18 44 0 74 -56 95 -57 21 -69 39 -47 73 23 34 86 38 94 6 6
-22 43 -28 43 -7 0 44 -71 68 -127 43z M5525 998 c-66 -17 -109 -84 -109 -171
-1 -50 3 -62 23 -78 34 -28 96 -25 138 7 32 24 44 54 23 54 -6 0 -21 -12 -34
-27 -25 -28 -75 -35 -102 -12 -21 17 -18 107 5 149 32 62 111 82 133 35 13
-29 38 -33 38 -7 0 40 -58 65 -115 50z M1390 987 c-16 -8 -26 -23 -28 -41 -2
-18 -11 -30 -23 -33 -25 -7 -25 -23 1 -23 17 0 19 -8 22 -77 2 -50 7 -78 16
-81 9 -3 12 17 12 77 0 74 2 81 19 81 29 0 35 18 9 22 -32 4 -39 57 -9 65 12
3 21 9 21 14 0 12 -10 11 -40 -4z M1500 990 c-12 -7 -12 -12 -2 -22 9 -9 15
-9 24 0 16 16 -2 34 -22 22z M1800 990 c-12 -7 -12 -12 -2 -22 9 -9 15 -9 24
0 16 16 -2 34 -22 22z M3090 990 c-12 -7 -12 -12 -2 -22 9 -9 15 -9 24 0 16
16 -2 34 -22 22z M4026 987 c-14 -10 -16 -16 -7 -22 15 -9 35 8 30 24 -3 8
-10 7 -23 -2z M7150 991 c-16 -4 -31 -21 -43 -44 -9 -20 -24 -37 -32 -37 -8 0
-15 -4 -15 -10 0 -5 7 -10 16 -10 14 0 15 -7 10 -37 -16 -85 -18 -123 -8 -123
6 0 13 8 16 18 4 15 26 130 26 139 0 2 11 3 25 3 14 0 25 5 25 10 0 6 -7 10
-15 10 -39 0 -23 66 17 72 13 2 19 6 13 9 -5 3 -21 3 -35 0z M7843 988 c-12
-16 -57 -247 -50 -254 12 -12 25 7 31 43 14 76 26 101 57 113 26 11 33 11 46
-2 13 -13 13 -24 3 -74 -7 -32 -15 -64 -17 -71 -3 -7 2 -13 10 -13 18 0 21 10
36 94 10 52 9 62 -6 78 -17 19 -29 19 -87 1 -16 -4 -18 -1 -13 18 3 13 9 36
12 52 7 28 -5 37 -22 15z M8076 987 c-14 -10 -16 -16 -7 -22 15 -9 35 8 30 24
-3 8 -10 7 -23 -2z M2313 940 c-3 -11 -14 -20 -24 -20 -25 0 -24 -16 1 -23 18
-5 20 -14 20 -76 0 -75 10 -91 60 -91 28 0 21 24 -9 28 -20 3 -22 8 -19 70 3
61 5 67 26 70 26 4 20 22 -9 22 -12 0 -19 7 -19 20 0 11 -5 20 -11 20 -6 0
-13 -9 -16 -20z M4137 940 c-3 -12 -14 -20 -26 -20 -12 0 -21 -4 -21 -10 0 -5
7 -10 15 -10 18 0 19 -18 3 -94 -9 -48 -9 -59 3 -67 23 -14 59 -11 59 6 0 8
-9 15 -20 15 -23 0 -24 11 -7 85 10 40 17 51 35 53 28 4 29 22 1 22 -16 0 -19
4 -14 20 4 14 2 20 -8 20 -8 0 -17 -9 -20 -20z M6147 940 c-3 -12 -14 -20 -26
-20 -12 0 -21 -4 -21 -10 0 -5 7 -10 15 -10 18 0 19 -18 3 -94 -9 -48 -9 -59
3 -67 23 -14 59 -11 59 6 0 8 -9 15 -20 15 -23 0 -24 11 -7 85 10 40 17 51 35
53 28 4 29 22 1 22 -16 0 -19 4 -14 20 4 14 2 20 -8 20 -8 0 -17 -9 -20 -20z
M6657 940 c-3 -12 -14 -20 -26 -20 -12 0 -21 -4 -21 -10 0 -5 7 -10 15 -10 18
0 19 -18 3 -94 -9 -48 -9 -59 3 -67 23 -14 59 -11 59 6 0 8 -9 15 -20 15 -23
0 -24 11 -7 85 10 40 17 51 35 53 28 4 29 22 1 22 -16 0 -19 4 -14 20 4 14 2
20 -8 20 -8 0 -17 -9 -20 -20z M8187 940 c-3 -12 -14 -20 -26 -20 -12 0 -21
-4 -21 -10 0 -5 7 -10 15 -10 18 0 19 -18 3 -94 -9 -48 -9 -59 3 -67 23 -14
59 -11 59 6 0 8 -9 15 -20 15 -23 0 -24 11 -7 85 10 40 17 51 35 53 28 4 29
22 1 22 -16 0 -19 4 -14 20 4 14 2 20 -8 20 -8 0 -17 -9 -20 -20z M8687 940
c-3 -12 -14 -20 -26 -20 -12 0 -21 -4 -21 -10 0 -5 7 -10 15 -10 18 0 19 -18
3 -94 -9 -48 -9 -59 3 -67 23 -14 59 -11 59 6 0 8 -9 15 -20 15 -23 0 -24 11
-7 85 10 40 17 51 35 53 28 4 29 22 1 22 -16 0 -19 4 -14 20 4 14 2 20 -8 20
-8 0 -17 -9 -20 -20z M558 913 c-3 -5 -2 -42 1 -83 6 -68 8 -76 33 -90 22 -12
33 -12 57 -4 19 8 33 8 39 2 23 -23 32 5 29 90 -2 73 -5 87 -20 90 -15 3 -17
-6 -17 -66 0 -78 -11 -95 -57 -90 -28 3 -28 4 -31 81 -2 58 -6 77 -17 77 -8 0
-15 -3 -17 -7z M1192 828 c2 -62 7 -93 16 -96 9 -3 12 14 12 60 0 67 12 94 44
100 26 4 33 28 9 28 -11 0 -25 -6 -32 -12 -11 -10 -14 -10 -18 0 -3 6 -11 12
-19 12 -12 0 -14 -17 -12 -92z M1633 905 c-35 -15 -43 -31 -43 -91 0 -60 26
-86 82 -82 25 2 45 10 52 20 15 24 0 34 -22 15 -25 -23 -59 -21 -72 3 -18 33
-8 101 16 117 18 12 24 11 48 -8 29 -23 47 -18 30 8 -15 24 -56 32 -91 18z
M2612 828 c2 -62 7 -93 16 -96 9 -3 12 14 12 60 0 67 12 94 44 100 26 4 33 28
9 28 -11 0 -25 -6 -32 -12 -11 -10 -14 -10 -18 0 -3 6 -11 12 -19 12 -12 0
-14 -17 -12 -92z M2762 828 c2 -62 7 -93 16 -96 9 -3 12 14 12 60 0 67 12 94
44 100 26 4 33 28 9 28 -11 0 -25 -6 -32 -12 -11 -10 -14 -10 -18 0 -3 6 -11
12 -19 12 -12 0 -14 -17 -12 -92z M2921 904 c-17 -7 -31 -18 -31 -24 0 -15 16
-12 30 5 19 22 57 19 65 -6 9 -26 3 -32 -48 -44 -32 -8 -44 -16 -51 -37 -17
-48 39 -86 84 -58 9 6 17 5 21 -2 16 -25 26 7 22 74 -1 40 -5 78 -7 84 -7 18
-52 22 -85 8z m66 -90 c3 -8 0 -27 -6 -40 -9 -20 -17 -25 -39 -22 -37 4 -38
47 -2 65 33 17 39 16 47 -3z M3248 904 c-16 -8 -28 -10 -28 -4 0 5 -7 10 -15
10 -12 0 -15 -17 -15 -90 0 -73 3 -90 15 -90 12 0 15 14 15 68 0 75 10 92 52
92 36 0 48 -24 48 -99 0 -78 15 -79 23 -1 7 67 -3 104 -32 119 -25 14 -30 13
-63 -5z M4542 904 c-18 -7 -32 -18 -32 -24 0 -15 17 -12 24 5 6 17 51 20 61 5
15 -24 -6 -47 -48 -53 -46 -6 -80 -38 -75 -70 5 -31 32 -44 68 -30 16 6 30 7
30 2 0 -5 6 -9 13 -9 19 0 48 145 33 164 -18 22 -40 25 -74 10z m40 -100 c-8
-44 -65 -73 -78 -40 -8 22 13 54 38 59 34 6 43 2 40 -19z M4687 843 c-10 -43
-17 -86 -17 -96 0 -24 24 -16 28 9 2 10 10 43 18 71 13 46 19 54 46 61 17 4
33 13 36 20 6 18 -29 15 -50 -5 -17 -15 -18 -15 -18 0 0 10 -6 17 -13 17 -8 0
-19 -30 -30 -77z M5052 904 c-18 -7 -32 -18 -32 -24 0 -15 17 -12 24 5 6 17
51 20 61 5 15 -24 -6 -47 -48 -53 -46 -6 -80 -38 -75 -70 5 -31 32 -44 68 -30
16 6 30 7 30 2 0 -5 6 -9 13 -9 19 0 48 145 33 164 -18 22 -40 25 -74 10z m40
-100 c-8 -44 -65 -73 -78 -40 -8 22 13 54 38 59 34 6 43 2 40 -19z M5739 913
c-54 -8 -93 -79 -77 -140 7 -27 15 -33 44 -39 67 -12 134 45 134 115 0 25 -42
72 -62 70 -7 -1 -25 -4 -39 -6z m56 -30 c37 -37 -11 -133 -67 -133 -35 0 -48
29 -37 80 14 60 69 89 104 53z M5958 906 c-19 -10 -29 -11 -37 -3 -9 9 -14 8
-20 -2 -12 -19 -35 -160 -27 -168 11 -11 17 3 33 71 12 54 20 69 41 79 15 8
35 12 46 9 16 -3 18 -10 13 -50 -3 -26 -9 -62 -13 -81 -11 -55 18 -33 33 25
19 72 17 111 -6 124 -25 13 -31 13 -63 -4z M6420 909 c0 -7 10 -27 21 -46 22
-35 22 -35 -22 -79 -23 -24 -40 -46 -37 -50 10 -9 46 14 64 41 22 33 36 31 53
-6 14 -31 36 -47 49 -35 3 4 -4 27 -17 52 -24 45 -24 45 12 82 21 21 37 41 37
45 0 17 -28 5 -52 -23 -14 -16 -31 -30 -36 -30 -6 0 -16 14 -24 30 -12 29 -48
43 -48 19z M6919 913 c-54 -8 -93 -79 -77 -140 7 -27 15 -33 44 -39 67 -12
134 45 134 115 0 25 -42 72 -62 70 -7 -1 -25 -4 -39 -6z m56 -30 c37 -37 -11
-133 -67 -133 -35 0 -48 29 -37 80 14 60 69 89 104 53z M7342 904 c-18 -7 -32
-18 -32 -24 0 -15 17 -12 24 5 6 17 51 20 61 5 15 -24 -6 -47 -48 -53 -46 -6
-80 -38 -75 -70 5 -31 32 -44 68 -30 16 6 30 7 30 2 0 -5 6 -9 13 -9 19 0 48
145 33 164 -18 22 -40 25 -74 10z m40 -100 c-8 -44 -65 -73 -78 -40 -8 22 13
54 38 59 34 6 43 2 40 -19z M7487 843 c-10 -43 -17 -86 -17 -96 0 -24 24 -16
28 9 2 10 10 43 18 71 13 46 19 54 46 61 17 4 33 13 36 20 6 18 -29 15 -50 -5
-17 -15 -18 -15 -18 0 0 10 -6 17 -13 17 -8 0 -19 -30 -30 -77z M7683 912
c-55 -9 -100 -110 -69 -157 21 -32 84 -35 111 -5 23 25 12 39 -13 17 -28 -25
-69 -22 -76 6 -8 35 12 95 38 112 26 17 56 11 56 -11 0 -8 7 -14 16 -14 10 0
14 7 12 22 -3 23 -36 36 -75 30z M8523 912 c-55 -9 -100 -110 -69 -157 21 -32
84 -35 111 -5 23 25 12 39 -13 17 -28 -25 -69 -22 -76 6 -8 35 12 95 38 112
26 17 56 11 56 -11 0 -8 7 -14 16 -14 10 0 14 7 12 22 -3 23 -36 36 -75 30z
M8805 908 c-10 -29 -25 -105 -25 -131 0 -36 38 -56 80 -40 20 8 31 8 39 0 19
-19 32 6 47 84 17 92 17 99 0 99 -10 0 -19 -20 -26 -57 -16 -77 -33 -103 -70
-103 -44 0 -45 4 -15 138 4 15 1 22 -10 22 -9 0 -18 -6 -20 -12z M9017 843
c-10 -43 -17 -86 -17 -96 0 -24 24 -16 28 9 2 10 10 43 18 71 13 46 19 54 46
61 17 4 33 13 36 20 6 18 -29 15 -50 -5 -17 -15 -18 -15 -18 0 0 10 -6 17 -13
17 -8 0 -19 -30 -30 -77z M780 784 c0 -96 3 -125 13 -122 6 3 13 21 15 42 3
36 4 37 37 30 46 -8 73 2 90 36 20 39 19 69 -5 108 -17 27 -26 32 -58 32 -21
0 -43 -5 -49 -11 -8 -8 -13 -8 -17 0 -19 31 -26 1 -26 -115z m120 91 c7 -9 13
-33 13 -55 0 -48 -17 -70 -53 -70 -41 0 -55 27 -51 92 3 41 65 64 91 33z
M1020 888 c-25 -27 -27 -103 -4 -136 17 -24 61 -30 95 -12 20 11 27 40 9 40
-5 0 -10 -4 -10 -10 0 -5 -9 -14 -20 -20 -30 -16 -60 4 -60 40 0 30 1 30 55
30 51 0 55 2 55 23 0 62 -76 91 -120 45z m80 -7 c17 -33 11 -41 -30 -41 -32 0
-40 4 -40 18 0 41 51 57 70 23z M1500 820 c0 -53 4 -90 10 -90 6 0 10 37 10
90 0 53 -4 90 -10 90 -6 0 -10 -37 -10 -90z M1800 820 c0 -53 4 -90 10 -90 6
0 10 37 10 90 0 53 -4 90 -10 90 -6 0 -10 -37 -10 -90z M1910 888 c-25 -27
-27 -103 -4 -136 17 -24 61 -30 95 -12 20 11 27 40 9 40 -5 0 -10 -4 -10 -10
0 -5 -9 -14 -20 -20 -30 -16 -60 4 -60 40 0 30 1 30 55 30 51 0 55 2 55 23 0
62 -76 91 -120 45z m80 -7 c17 -33 11 -41 -30 -41 -32 0 -40 4 -40 18 0 41 51
57 70 23z M2440 888 c-25 -27 -27 -103 -4 -136 17 -24 61 -30 95 -12 20 11 27
40 9 40 -5 0 -10 -4 -10 -10 0 -5 -9 -14 -20 -20 -30 -16 -60 4 -60 40 0 30 1
30 55 30 51 0 55 2 55 23 0 62 -76 91 -120 45z m80 -7 c17 -33 11 -41 -30 -41
-32 0 -40 4 -40 18 0 41 51 57 70 23z M3090 820 c0 -53 4 -90 10 -90 6 0 10
37 10 90 0 53 -4 90 -10 90 -6 0 -10 -37 -10 -90z M4005 898 c-11 -31 -35
-162 -30 -166 11 -11 23 15 35 78 6 36 14 73 17 83 5 19 -15 24 -22 5z M4252
888 c-62 -67 -52 -158 18 -158 30 0 80 34 67 46 -4 4 -19 -3 -32 -16 -32 -30
-60 -18 -60 26 0 28 1 29 58 32 57 3 57 3 57 35 0 18 -5 38 -12 45 -20 20 -72
14 -96 -10z m78 -3 c21 -26 4 -45 -40 -45 -45 0 -50 10 -20 40 24 24 43 25 60
5z M4842 888 c-62 -67 -52 -158 18 -158 30 0 80 34 67 46 -4 4 -19 -3 -32 -16
-32 -30 -60 -18 -60 26 0 28 1 29 58 32 57 3 57 3 57 35 0 18 -5 38 -12 45
-20 20 -72 14 -96 -10z m78 -3 c21 -26 4 -45 -40 -45 -45 0 -50 10 -20 40 24
24 43 25 60 5z M6262 888 c-62 -67 -52 -158 18 -158 30 0 80 34 67 46 -4 4
-19 -3 -32 -16 -32 -30 -60 -18 -60 26 0 28 1 29 58 32 57 3 57 3 57 35 0 18
-5 38 -12 45 -20 20 -72 14 -96 -10z m78 -3 c21 -26 4 -45 -40 -45 -45 0 -50
10 -20 40 24 24 43 25 60 5z M8055 898 c-11 -31 -35 -162 -30 -166 11 -11 23
15 35 78 6 36 14 73 17 83 5 19 -15 24 -22 5z M8302 888 c-62 -67 -52 -158 18
-158 30 0 80 34 67 46 -4 4 -19 -3 -32 -16 -32 -30 -60 -18 -60 26 0 28 1 29
58 32 57 3 57 3 57 35 0 18 -5 38 -12 45 -20 20 -72 14 -96 -10z m78 -3 c21
-26 4 -45 -40 -45 -45 0 -50 10 -20 40 24 24 43 25 60 5z M9172 888 c-62 -67
-52 -158 18 -158 30 0 80 34 67 46 -4 4 -19 -3 -32 -16 -32 -30 -60 -18 -60
26 0 28 1 29 58 32 57 3 57 3 57 35 0 18 -5 38 -12 45 -20 20 -72 14 -96 -10z
m78 -3 c21 -26 4 -45 -40 -45 -45 0 -50 10 -20 40 24 24 43 25 60 5z M3572
843 c5 -26 38 -29 38 -4 0 15 -6 21 -21 21 -14 0 -19 -5 -17 -17z M5350 670
c0 -7 662 -10 1965 -10 1303 0 1965 3 1965 10 0 7 -662 10 -1965 10 -1303 0
-1965 -3 -1965 -10z M2240 559 c-6 -11 -18 -50 -25 -86 -15 -71 -7 -139 21
-195 18 -34 38 -38 28 -5 -28 87 -31 180 -9 253 18 59 17 54 5 54 -5 0 -14 -9
-20 -21z M3884 560 c27 -114 30 -159 14 -232 -16 -73 -15 -95 3 -68 33 52 45
163 26 231 -17 58 -54 118 -43 69z M365 553 c-34 -9 -55 -35 -55 -68 0 -39 20
-58 85 -82 44 -16 50 -22 53 -51 3 -26 -1 -34 -22 -43 -32 -15 -77 -3 -83 21
-3 11 -14 20 -24 20 -21 0 -17 -22 9 -52 24 -29 106 -24 137 7 14 13 25 34 25
45 0 25 -51 80 -75 80 -9 0 -29 7 -45 15 -32 16 -40 51 -18 73 19 19 66 14 85
-8 20 -23 43 -26 43 -7 0 34 -67 63 -115 50z M1410 537 c-16 -8 -26 -23 -28
-41 -2 -18 -11 -30 -23 -33 -25 -7 -25 -23 1 -23 17 0 19 -8 22 -77 2 -50 7
-78 16 -81 9 -3 12 17 12 77 0 74 2 81 19 81 29 0 35 18 9 22 -32 4 -39 57 -9
65 12 3 21 9 21 14 0 12 -10 11 -40 -4z M1520 540 c-12 -7 -12 -12 -2 -22 9
-9 15 -9 24 0 16 16 -2 34 -22 22z M1820 540 c-12 -7 -12 -12 -2 -22 9 -9 15
-9 24 0 16 16 -2 34 -22 22z M2900 540 c-12 -7 -12 -12 -2 -22 9 -9 15 -9 24
0 16 16 -2 34 -22 22z M2330 410 c0 -72 4 -130 9 -130 5 0 11 5 13 11 3 9 9 9
25 0 60 -32 113 6 113 82 0 68 -26 91 -91 84 -49 -6 -49 -6 -49 38 0 25 -4 45
-10 45 -6 0 -10 -50 -10 -130z m121 8 c6 -10 9 -38 7 -61 -2 -32 -8 -44 -27
-53 -52 -26 -92 25 -76 97 11 48 73 60 96 17z M2580 520 c-13 -25 -2 -26 16
-2 13 16 15 16 25 0 14 -25 32 -23 19 2 -6 11 -19 20 -30 20 -11 0 -24 -9 -30
-20z M2763 490 c-3 -11 -14 -20 -24 -20 -25 0 -24 -16 1 -23 18 -5 20 -14 20
-76 0 -75 10 -91 60 -91 28 0 21 24 -9 28 -20 3 -22 8 -19 70 3 61 5 67 26 70
26 4 20 22 -9 22 -12 0 -19 7 -19 20 0 11 -5 20 -11 20 -6 0 -13 -9 -16 -20z
M3753 490 c-3 -11 -14 -20 -24 -20 -25 0 -24 -16 1 -23 18 -5 20 -14 20 -76 0
-75 10 -91 60 -91 28 0 21 24 -9 28 -20 3 -22 8 -19 70 3 61 5 67 26 70 26 4
20 22 -9 22 -12 0 -19 7 -19 20 0 11 -5 20 -11 20 -6 0 -13 -9 -16 -20z M558
463 c-3 -5 -2 -42 1 -83 6 -68 8 -76 33 -90 22 -12 33 -12 57 -4 19 8 33 8 39
2 23 -23 32 5 29 90 -2 73 -5 87 -20 90 -15 3 -17 -6 -17 -66 0 -78 -11 -95
-57 -90 -28 3 -28 4 -31 81 -2 58 -6 77 -17 77 -8 0 -15 -3 -17 -7z M1202 378
c2 -62 7 -93 16 -96 9 -3 12 14 12 60 0 67 12 94 44 100 26 4 33 28 9 28 -11
0 -25 -6 -32 -12 -11 -10 -14 -10 -18 0 -3 6 -11 12 -19 12 -12 0 -14 -17 -12
-92z M1653 455 c-35 -15 -43 -31 -43 -91 0 -60 26 -86 82 -82 25 2 45 10 52
20 15 24 0 34 -22 15 -25 -23 -59 -21 -72 3 -18 33 -8 101 16 117 18 12 24 11
48 -8 29 -23 47 -18 30 8 -15 24 -56 32 -91 18z M3568 454 c-16 -8 -28 -10
-28 -4 0 5 -7 10 -15 10 -12 0 -15 -17 -15 -90 0 -73 3 -90 15 -90 12 0 15 14
15 68 0 75 10 92 52 92 36 0 48 -24 48 -99 0 -78 15 -79 23 -1 7 67 -3 104
-32 119 -25 14 -30 13 -63 -5z M790 334 c0 -96 3 -125 13 -122 6 3 13 21 15
42 3 36 4 37 37 30 46 -8 73 2 90 36 20 39 19 69 -5 108 -17 27 -26 32 -58 32
-21 0 -43 -5 -49 -11 -8 -8 -13 -8 -17 0 -19 31 -26 1 -26 -115z m120 91 c7
-9 13 -33 13 -55 0 -48 -17 -70 -53 -70 -41 0 -55 27 -51 92 3 41 65 64 91 33z
M1020 438 c-25 -27 -27 -103 -4 -136 17 -24 61 -30 95 -12 20 11 27 40 9 40
-5 0 -10 -4 -10 -10 0 -5 -9 -14 -20 -20 -30 -16 -60 4 -60 40 0 30 1 30 55
30 51 0 55 2 55 23 0 62 -76 91 -120 45z m80 -7 c17 -33 11 -41 -30 -41 -32 0
-40 4 -40 18 0 41 51 57 70 23z M1520 370 c0 -53 4 -90 10 -90 6 0 10 37 10
90 0 53 -4 90 -10 90 -6 0 -10 -37 -10 -90z M1820 370 c0 -53 4 -90 10 -90 6
0 10 37 10 90 0 53 -4 90 -10 90 -6 0 -10 -37 -10 -90z M1930 438 c-25 -27
-27 -103 -4 -136 17 -24 61 -30 95 -12 20 11 27 40 9 40 -5 0 -10 -4 -10 -10
0 -5 -9 -14 -20 -20 -30 -16 -60 4 -60 40 0 30 1 30 55 30 51 0 55 2 55 23 0
62 -76 91 -120 45z m80 -7 c17 -33 11 -41 -30 -41 -32 0 -40 4 -40 18 0 41 51
57 70 23z M2562 448 c-7 -7 -12 -16 -12 -20 0 -14 22 -8 35 9 11 15 17 15 39
5 16 -7 26 -20 26 -32 0 -16 -7 -20 -33 -20 -46 0 -77 -25 -77 -60 0 -44 62
-69 89 -36 10 12 6 14 -20 13 -19 -1 -35 4 -42 15 -16 25 8 48 50 48 33 0 35
-2 30 -27 -6 -33 1 -53 19 -53 21 0 20 133 -2 154 -18 19 -85 21 -102 4z
M2900 370 c0 -53 4 -90 10 -90 6 0 10 37 10 90 0 53 -4 90 -10 90 -6 0 -10
-37 -10 -90z M3000 370 c0 -72 3 -90 15 -90 11 0 15 17 17 72 3 69 4 73 31 82
39 14 51 -3 55 -85 5 -90 25 -87 26 4 1 72 10 87 53 87 33 0 33 -2 42 -147 1
-7 6 -13 11 -13 13 0 13 136 0 161 -12 21 -59 26 -92 8 -14 -8 -23 -8 -31 0
-14 14 -70 14 -84 0 -8 -8 -13 -8 -17 0 -18 28 -26 3 -26 -79z M3340 438 c-25
-27 -27 -103 -4 -136 17 -24 61 -30 95 -12 20 11 27 40 9 40 -5 0 -10 -4 -10
-10 0 -5 -9 -14 -20 -20 -30 -16 -60 4 -60 40 0 30 1 30 55 30 51 0 55 2 55
23 0 62 -76 91 -120 45z m80 -7 c17 -33 11 -41 -30 -41 -32 0 -40 4 -40 18 0
41 51 57 70 23z M4052 393 c5 -26 38 -29 38 -4 0 15 -6 21 -21 21 -14 0 -19
-5 -17 -17z M5842 393 c5 -26 38 -29 38 -4 0 15 -6 21 -21 21 -14 0 -19 -5
-17 -17z"/>
</g>
</svg>
